Element 0
Epetra::SerialDenseMatrix
Data access mode: Copy
A_Copied: yes
Rows(M): 24
Columns(N): 24
LDA: 24
24679487179.44075 8413461538.444147 -8413461538.453875 5608974358.984875 4206730769.226784 1682692307.647156 -560897435.8971962 -841346153.8266085 841346153.8246812 5608974358.942799 -1682692307.691385 -4206730769.227396 -11217948717.94806 1682692307.687379 -1682692307.6467 -8974358974.308317 841346153.8439207 8413461538.453835 -6169871794.849989 -4206730769.222424 4206730769.226937 -8974358974.364849 -8413461538.461813 -841346153.8246411 
8413461538.444147 24679487179.49389 -8413461538.479409 4206730769.236838 5608974358.986313 1682692307.684612 841346153.866963 -8974358974.369402 8413461538.456482 1682692307.685703 -11217948717.96797 -1682692307.698431 -1682692307.699765 5608974358.981803 -4206730769.224942 -841346153.8446231 -560897435.889413 841346153.8475631 -4206730769.222425 -6169871794.873541 4206730769.239233 -8413461538.46684 -8974358974.361675 -841346153.8251059 
-8413461538.453875 -8413461538.479409 24679487179.50497 -1682692307.73496 -1682692307.697476 -11217948717.91928 -841346153.8657382 8413461538.46151 -8974358974.345556 -4206730769.226118 1682692307.69371 5608974358.978106 1682692307.73414 -4206730769.234996 5608974358.962207 8413461538.453197 -841346153.8485074 -8974358974.388231 4206730769.226938 4206730769.239233 -6169871794.886756 841346153.8664174 841346153.8659372 -560897435.9054525 
5608974358.984875 4206730769.236838 -1682692307.73496 24679487179.52771 8413461538.483096 8413461538.456717 5608974358.987411 -1682692307.703139 4206730769.226832 -560897435.8949317 -841346153.8706535 -841346153.8695748 -8974358974.397545 841346153.8540448 -8413461538.453556 -11217948717.9492 1682692307.708552 1682692307.736484 -8974358974.364847 -8413461538.466838 841346153.8664172 -6169871794.893474 -4206730769.2419 -4206730769.228356 
4206730769.226784 5608974358.986313 -1682692307.697476 8413461538.483096 24679487179.4803 8413461538.431028 1682692307.691793 -11217948717.96797 1682692307.681956 841346153.8217851 -8974358974.355806 -8413461538.459056 -841346153.8434222 -560897435.8894163 -841346153.8383826 -1682692307.676326 5608974358.975006 4206730769.231976 -8413461538.461813 -8974358974.361677 841346153.8659374 -4206730769.241899 -6169871794.866749 -4206730769.215985 
1682692307.647156 1682692307.684612 -11217948717.91928 8413461538.456717 8413461538.431028 24679487179.41916 4206730769.226688 -1682692307.692342 5608974358.9335 841346153.8214116 -8413461538.455163 -8974358974.348959 -8413461538.453485 841346153.8487664 -8974358974.299023 -1682692307.645489 4206730769.224188 5608974358.963906 -841346153.8246412 -841346153.8251059 -560897435.9054523 -4206730769.228355 -4206730769.215985 -6169871794.843853 
-560897435.8971962 841346153.866963 -841346153.8657382 5608974358.987411 1682692307.691793 4206730769.226688 24679487179.52455 -8413461538.491573 8413461538.450327 5608974358.982167 -4206730769.237113 -1682692307.735667 -6169871794.891894 4206730769.245434 -4206730769.225163 -8974358974.35943 8413461538.46768 841346153.8688949 -11217948717.94806 -1682692307.699764 1682692307.73414 -8974358974.397543 -841346153.8434212 -8413461538.453484 
-841346153.8266085 -8974358974.369402 8413461538.46151 -1682692307.703139 -11217948717.96797 -1682692307.692342 -8413461538.491573 24679487179.50691 -8413461538.440464 -4206730769.229322 5608974358.992819 1682692307.708048 4206730769.245436 -6169871794.880054 4206730769.219761 8413461538.463785 -8974358974.374693 -841346153.87028 1682692307.68738 5608974358.981804 -4206730769.234996 841346153.8540452 -560897435.8894161 841346153.8487666 
841346153.8246812 8413461538.456482 -8974358974.345556 4206730769.226832 1682692307.681956 5608974358.9335 8413461538.450327 -8413461538.440464 24679487179.41744 1682692307.645029 -1682692307.676305 -11217948717.91844 -4206730769.225163 4206730769.219761 -6169871794.842994 -841346153.8214529 841346153.821896 -560897435.907141 -1682692307.646699 -4206730769.224941 5608974358.962206 -8413461538.453556 -841346153.8383826 -8974358974.299023 
5608974358.942799 1682692307.685703 -4206730769.226118 -560897435.8949317 841346153.8217851 841346153.8214116 5608974358.982167 -4206730769.229322 1682692307.645029 24679487179.43306 -8413461538.441299 -8413461538.453156 -8974358974.35943 8413461538.463784 -841346153.8214527 -6169871794.84615 4206730769.220297 4206730769.226579 -8974358974.308319 -841346153.8446231 8413461538.453197 -11217948717.9492 -1682692307.676325 -1682692307.64549 
-1682692307.691385 -11217948717.96797 1682692307.69371 -841346153.8706535 -8974358974.355806 -8413461538.455163 -4206730769.237113 5608974358.992819 -1682692307.676305 -8413461538.441299 24679487179.49331 8413461538.4813 8413461538.467678 -8974358974.374693 841346153.8218958 4206730769.220297 -6169871794.873257 -4206730769.241123 841346153.84392 -560897435.889413 -841346153.8485072 1682692307.708552 5608974358.975008 4206730769.224188 
-4206730769.227396 -1682692307.698431 5608974358.978106 -841346153.8695748 -8413461538.459056 -8974358974.348959 -1682692307.735667 1682692307.708048 -11217948717.91844 -8413461538.453156 8413461538.4813 24679487179.51006 841346153.8688948 -841346153.8702803 -560897435.9071411 4206730769.226578 -4206730769.241123 -6169871794.889303 8413461538.453836 841346153.8475631 -8974358974.388233 1682692307.736484 4206730769.231977 5608974358.963907 
-11217948717.94806 -1682692307.699765 1682692307.73414 -8974358974.397545 -841346153.8434222 -8413461538.453485 -6169871794.891894 4206730769.245436 -4206730769.225163 -8974358974.35943 8413461538.467678 841346153.8688948 24679487179.52455 -8413461538.491572 8413461538.450327 5608974358.982168 -4206730769.237113 -1682692307.735667 -560897435.8971965 841346153.8669631 -841346153.8657382 5608974358.987413 1682692307.691793 4206730769.226688 
1682692307.687379 5608974358.981803 -4206730769.234996 841346153.8540448 -560897435.8894163 841346153.8487664 4206730769.245434 -6169871794.880054 4206730769.219761 8413461538.463784 -8974358974.374693 -841346153.8702803 -8413461538.491572 24679487179.50691 -8413461538.440466 -4206730769.229322 5608974358.992822 1682692307.708048 -841346153.8266084 -8974358974.369398 8413461538.46151 -1682692307.703139 -11217948717.96797 -1682692307.692342 
-1682692307.6467 -4206730769.224942 5608974358.962207 -8413461538.453556 -841346153.8383826 -8974358974.299023 -4206730769.225163 4206730769.219761 -6169871794.842994 -841346153.8214527 841346153.8218958 -560897435.9071411 8413461538.450327 -8413461538.440466 24679487179.41745 1682692307.645029 -1682692307.676304 -11217948717.91844 841346153.8246813 8413461538.456483 -8974358974.345554 4206730769.226832 1682692307.681956 5608974358.9335 
-8974358974.308317 -841346153.8446231 8413461538.453197 -11217948717.9492 -1682692307.676326 -1682692307.645489 -8974358974.35943 8413461538.463785 -841346153.8214529 -6169871794.84615 4206730769.220297 4206730769.226578 5608974358.982168 -4206730769.229322 1682692307.645029 24679487179.43306 -8413461538.441298 -8413461538.453156 5608974358.942799 1682692307.685702 -4206730769.226119 -560897435.8949318 841346153.8217852 841346153.8214114 
841346153.8439207 -560897435.889413 -841346153.8485074 1682692307.708552 5608974358.975006 4206730769.224188 8413461538.46768 -8974358974.374693 841346153.821896 4206730769.220297 -6169871794.873257 -4206730769.241123 -4206730769.237113 5608974358.992822 -1682692307.676304 -8413461538.441298 24679487179.49331 8413461538.481301 -1682692307.691385 -11217948717.96798 1682692307.69371 -841346153.8706536 -8974358974.355808 -8413461538.455162 
8413461538.453835 841346153.8475631 -8974358974.388231 1682692307.736484 4206730769.231976 5608974358.963906 841346153.8688949 -841346153.87028 -560897435.907141 4206730769.226579 -4206730769.241123 -6169871794.889303 -1682692307.735667 1682692307.708048 -11217948717.91844 -8413461538.453156 8413461538.481301 24679487179.51006 -4206730769.227396 -1682692307.698431 5608974358.978106 -841346153.869575 -8413461538.459056 -8974358974.348955 
-6169871794.849989 -4206730769.222425 4206730769.226938 -8974358974.364847 -8413461538.461813 -841346153.8246412 -11217948717.94806 1682692307.68738 -1682692307.646699 -8974358974.308319 841346153.84392 8413461538.453836 -560897435.8971965 -841346153.8266084 841346153.8246813 5608974358.942799 -1682692307.691385 -4206730769.227396 24679487179.44074 8413461538.444148 -8413461538.453876 5608974358.984877 4206730769.226783 1682692307.647156 
-4206730769.222424 -6169871794.873541 4206730769.239233 -8413461538.466838 -8974358974.361677 -841346153.8251059 -1682692307.699764 5608974358.981804 -4206730769.224941 -841346153.8446231 -560897435.889413 841346153.8475631 841346153.8669631 -8974358974.369398 8413461538.456483 1682692307.685702 -11217948717.96798 -1682692307.698431 8413461538.444148 24679487179.49389 -8413461538.47941 4206730769.236838 5608974358.986314 1682692307.684611 
4206730769.226937 4206730769.239233 -6169871794.886756 841346153.8664172 841346153.8659374 -560897435.9054523 1682692307.73414 -4206730769.234996 5608974358.962206 8413461538.453197 -841346153.8485072 -8974358974.388233 -841346153.8657382 8413461538.46151 -8974358974.345554 -4206730769.226119 1682692307.69371 5608974358.978106 -8413461538.453876 -8413461538.47941 24679487179.50497 -1682692307.73496 -1682692307.697476 -11217948717.91928 
-8974358974.364849 -8413461538.46684 841346153.8664174 -6169871794.893474 -4206730769.241899 -4206730769.228355 -8974358974.397543 841346153.8540452 -8413461538.453556 -11217948717.9492 1682692307.708552 1682692307.736484 5608974358.987413 -1682692307.703139 4206730769.226832 -560897435.8949318 -841346153.8706536 -841346153.869575 5608974358.984877 4206730769.236838 -1682692307.73496 24679487179.52771 8413461538.483095 8413461538.456713 
-8413461538.461813 -8974358974.361675 841346153.8659372 -4206730769.2419 -6169871794.866749 -4206730769.215985 -841346153.8434212 -560897435.8894161 -841346153.8383826 -1682692307.676325 5608974358.975008 4206730769.231977 1682692307.691793 -11217948717.96797 1682692307.681956 841346153.8217852 -8974358974.355808 -8413461538.459056 4206730769.226783 5608974358.986314 -1682692307.697476 8413461538.483095 24679487179.4803 8413461538.431029 
-841346153.8246411 -841346153.8251059 -560897435.9054525 -4206730769.228356 -4206730769.215985 -6169871794.843853 -8413461538.453484 841346153.8487666 -8974358974.299023 -1682692307.64549 4206730769.224188 5608974358.963907 4206730769.226688 -1682692307.692342 5608974358.9335 841346153.8214114 -8413461538.455162 -8974358974.348955 1682692307.647156 1682692307.684611 -11217948717.91928 8413461538.456713 8413461538.431029 24679487179.41917 

Element 1
Epetra::SerialDenseMatrix
Data access mode: Copy
A_Copied: yes
Rows(M): 24
Columns(N): 24
LDA: 24
24679487179.55589 8413461538.488758 -8413461538.472398 5608974359.013474 4206730769.241546 1682692307.707955 -560897435.8772389 -841346153.8602095 841346153.8626621 5608974359.000005 -1682692307.713333 -4206730769.239809 -11217948717.99553 1682692307.708732 -1682692307.704344 -8974358974.384249 841346153.8508238 8413461538.472076 -6169871794.897948 -4206730769.240662 4206730769.236197 -8974358974.414404 -8413461538.475658 -841346153.8623409 
8413461538.488758 24679487179.48303 -8413461538.4381 4206730769.241545 5608974358.977051 1682692307.703033 841346153.8340006 -8974358974.346224 8413461538.449314 1682692307.675089 -11217948717.92947 -1682692307.705746 -1682692307.679691 5608974358.953547 -4206730769.221882 -841346153.8433871 -560897435.9054587 841346153.8479741 -4206730769.240663 -6169871794.871325 4206730769.221821 -8413461538.475657 -8974358974.361156 -841346153.8564153 
-8413461538.472398 -8413461538.4381 24679487179.45863 -1682692307.685463 -1682692307.677775 -11217948717.93072 -841346153.8290187 8413461538.449315 -8974358974.32004 -4206730769.229752 1682692307.675064 5608974358.976521 1682692307.679018 -4206730769.221882 5608974358.941349 8413461538.467046 -841346153.8424301 -8974358974.355091 4206730769.236198 4206730769.221821 -6169871794.858231 841346153.8343674 841346153.8339887 -560897435.9124155 
5608974359.013474 4206730769.241545 -1682692307.685463 24679487179.55786 8413461538.477425 8413461538.494699 5608974358.994334 -1682692307.715032 4206730769.235347 -560897435.8905501 -841346153.8539728 -841346153.859223 -8974358974.372908 841346153.8559229 -8413461538.469843 -11217948717.98887 1682692307.704763 1682692307.697467 -8974358974.414402 -8413461538.475656 841346153.8343679 -6169871794.898932 -4206730769.234993 -4206730769.247349 
4206730769.241546 5608974358.977051 -1682692307.677775 8413461538.477425 24679487179.485 8413461538.46595 1682692307.671122 -11217948717.92947 1682692307.673362 841346153.8391042 -8974358974.3482 -8413461538.45984 -841346153.8371532 -560897435.9054569 -841346153.8373289 -1682692307.681392 5608974358.954537 4206730769.231841 -8413461538.475656 -8974358974.361158 841346153.8339887 -4206730769.234994 -6169871794.872312 -4206730769.2302 
1682692307.707955 1682692307.703033 -11217948717.93072 8413461538.494699 8413461538.46595 24679487179.5279 4206730769.234212 -1682692307.709714 5608974358.982185 841346153.836919 -8413461538.460971 -8974358974.37796 -8413461538.469277 841346153.8542087 -8974358974.366426 -1682692307.694818 4206730769.234108 5608974358.970308 -841346153.8623409 -841346153.8564155 -560897435.9124155 -4206730769.247348 -4206730769.230202 -6169871794.892859 
-560897435.8772389 841346153.8340006 -841346153.8290187 5608974358.994334 1682692307.671122 4206730769.234212 24679487179.47075 -8413461538.45335 8413461538.444419 5608974358.976579 -4206730769.225541 -1682692307.691021 -6169871794.855382 4206730769.230392 -4206730769.22221 -8974358974.340611 8413461538.460218 841346153.8538748 -11217948717.99553 -1682692307.67969 1682692307.679019 -8974358974.372908 -841346153.8371533 -8413461538.469276 
-841346153.8602095 -8974358974.346224 8413461538.449315 -1682692307.715032 -11217948717.92947 -1682692307.709714 -8413461538.45335 24679487179.47652 -8413461538.449433 -4206730769.227808 5608974358.973797 1682692307.701333 4206730769.230391 -6169871794.868067 4206730769.22749 8413461538.461351 -8974358974.354647 -841346153.8513139 1682692307.708732 5608974358.953549 -4206730769.221883 841346153.8559229 -560897435.905457 841346153.8542088 
841346153.8626621 8413461538.449314 -8974358974.32004 4206730769.235347 1682692307.673362 5608974358.982185 8413461538.444419 -8413461538.449433 24679487179.45212 1682692307.691208 -1682692307.681743 -11217948717.93965 -4206730769.22221 4206730769.22749 -6169871794.854979 -841346153.8372391 841346153.840224 -560897435.8945708 -1682692307.704344 -4206730769.221882 5608974358.941348 -8413461538.469844 -841346153.8373289 -8974358974.366426 
5608974359.000005 1682692307.675089 -4206730769.229752 -560897435.8905501 841346153.8391042 841346153.836919 5608974358.976579 -4206730769.227808 1682692307.691208 24679487179.4954 -8413461538.453353 -8413461538.466726 -8974358974.340609 8413461538.461353 -841346153.8372393 -6169871794.867706 4206730769.230394 4206730769.233364 -8974358974.384249 -841346153.8433868 8413461538.467048 -11217948717.98887 -1682692307.681391 -1682692307.694818 
-1682692307.713333 -11217948717.92947 1682692307.675064 -841346153.8539728 -8974358974.3482 -8413461538.460971 -4206730769.225541 5608974358.973797 -1682692307.681743 -8413461538.453353 24679487179.4785 8413461538.465949 8413461538.460218 -8974358974.354649 841346153.8402237 4206730769.230393 -6169871794.86906 -4206730769.230202 841346153.8508245 -560897435.9054587 -841346153.8424299 1682692307.704762 5608974358.954536 4206730769.234108 
-4206730769.239809 -1682692307.705746 5608974358.976521 -841346153.859223 -8413461538.45984 -8974358974.37796 -1682692307.691021 1682692307.701333 -11217948717.93965 -8413461538.466726 8413461538.465949 24679487179.49871 841346153.8538748 -841346153.8513138 -560897435.8945709 4206730769.233362 -4206730769.2302 -6169871794.87827 8413461538.472075 841346153.8479741 -8974358974.355093 1682692307.697468 4206730769.231841 5608974358.97031 
-11217948717.99553 -1682692307.679691 1682692307.679018 -8974358974.372908 -841346153.8371532 -8413461538.469277 -6169871794.855382 4206730769.230391 -4206730769.22221 -8974358974.340609 8413461538.460218 841346153.8538748 24679487179.47075 -8413461538.453348 8413461538.444418 5608974358.976579 -4206730769.225541 -1682692307.691021 -560897435.8772385 841346153.8340011 -841346153.8290187 5608974358.994334 1682692307.671122 4206730769.234212 
1682692307.708732 5608974358.953547 -4206730769.221882 841346153.8559229 -560897435.9054569 841346153.8542087 4206730769.230392 -6169871794.868067 4206730769.22749 8413461538.461353 -8974358974.354649 -841346153.8513138 -8413461538.453348 24679487179.47652 -8413461538.449436 -4206730769.227808 5608974358.973796 1682692307.701334 -841346153.8602096 -8974358974.346224 8413461538.449312 -1682692307.715032 -11217948717.92947 -1682692307.709713 
-1682692307.704344 -4206730769.221882 5608974358.941349 -8413461538.469843 -841346153.8373289 -8974358974.366426 -4206730769.22221 4206730769.22749 -6169871794.854979 -841346153.8372393 841346153.8402237 -560897435.8945709 8413461538.444418 -8413461538.449436 24679487179.45212 1682692307.691208 -1682692307.681742 -11217948717.93964 841346153.8626621 8413461538.449311 -8974358974.32004 4206730769.235346 1682692307.673362 5608974358.982187 
-8974358974.384249 -841346153.8433871 8413461538.467046 -11217948717.98887 -1682692307.681392 -1682692307.694818 -8974358974.340611 8413461538.461351 -841346153.8372391 -6169871794.867706 4206730769.230393 4206730769.233362 5608974358.976579 -4206730769.227808 1682692307.691208 24679487179.49541 -8413461538.453354 -8413461538.466727 5608974359.000006 1682692307.675089 -4206730769.229752 -560897435.8905501 841346153.8391042 841346153.8369188 
841346153.8508238 -560897435.9054587 -841346153.8424301 1682692307.704763 5608974358.954537 4206730769.234108 8413461538.460218 -8974358974.354647 841346153.840224 4206730769.230394 -6169871794.86906 -4206730769.2302 -4206730769.225541 5608974358.973796 -1682692307.681742 -8413461538.453354 24679487179.4785 8413461538.465951 -1682692307.713333 -11217948717.92947 1682692307.675063 -841346153.8539727 -8974358974.348202 -8413461538.460972 
8413461538.472076 841346153.8479741 -8974358974.355091 1682692307.697467 4206730769.231841 5608974358.970308 841346153.8538748 -841346153.8513139 -560897435.8945708 4206730769.233364 -4206730769.230202 -6169871794.87827 -1682692307.691021 1682692307.701334 -11217948717.93964 -8413461538.466727 8413461538.465951 24679487179.49871 -4206730769.239809 -1682692307.705746 5608974358.976519 -841346153.8592231 -8413461538.459839 -8974358974.377958 
-6169871794.897948 -4206730769.240663 4206730769.236198 -8974358974.414402 -8413461538.475656 -841346153.8623409 -11217948717.99553 1682692307.708732 -1682692307.704344 -8974358974.384249 841346153.8508245 8413461538.472075 -560897435.8772385 -841346153.8602096 841346153.8626621 5608974359.000006 -1682692307.713333 -4206730769.239809 24679487179.55589 8413461538.488761 -8413461538.472396 5608974359.013475 4206730769.241546 1682692307.707955 
-4206730769.240662 -6169871794.871325 4206730769.221821 -8413461538.475656 -8974358974.361158 -841346153.8564155 -1682692307.67969 5608974358.953549 -4206730769.221882 -841346153.8433868 -560897435.9054587 841346153.8479741 841346153.8340011 -8974358974.346224 8413461538.449311 1682692307.675089 -11217948717.92947 -1682692307.705746 8413461538.488761 24679487179.48304 -8413461538.438097 4206730769.241545 5608974358.977051 1682692307.703034 
4206730769.236197 4206730769.221821 -6169871794.858231 841346153.8343679 841346153.8339887 -560897435.9124155 1682692307.679019 -4206730769.221883 5608974358.941348 8413461538.467048 -841346153.8424299 -8974358974.355093 -841346153.8290187 8413461538.449312 -8974358974.32004 -4206730769.229752 1682692307.675063 5608974358.976519 -8413461538.472396 -8413461538.438097 24679487179.45863 -1682692307.685463 -1682692307.677775 -11217948717.93072 
-8974358974.414404 -8413461538.475657 841346153.8343674 -6169871794.898932 -4206730769.234994 -4206730769.247348 -8974358974.372908 841346153.8559229 -8413461538.469844 -11217948717.98887 1682692307.704762 1682692307.697468 5608974358.994334 -1682692307.715032 4206730769.235346 -560897435.8905501 -841346153.8539727 -841346153.8592231 5608974359.013475 4206730769.241545 -1682692307.685463 24679487179.55786 8413461538.477425 8413461538.494699 
-8413461538.475658 -8974358974.361156 841346153.8339887 -4206730769.234993 -6169871794.872312 -4206730769.230202 -841346153.8371533 -560897435.905457 -841346153.8373289 -1682692307.681391 5608974358.954536 4206730769.231841 1682692307.671122 -11217948717.92947 1682692307.673362 841346153.8391042 -8974358974.348202 -8413461538.459839 4206730769.241546 5608974358.977051 -1682692307.677775 8413461538.477425 24679487179.485 8413461538.465951 
-841346153.8623409 -841346153.8564153 -560897435.9124155 -4206730769.247349 -4206730769.2302 -6169871794.892859 -8413461538.469276 841346153.8542088 -8974358974.366426 -1682692307.694818 4206730769.234108 5608974358.97031 4206730769.234212 -1682692307.709713 5608974358.982187 841346153.8369188 -8413461538.460972 -8974358974.377958 1682692307.707955 1682692307.703034 -11217948717.93072 8413461538.494699 8413461538.465951 24679487179.52789 

Element 2
Epetra::SerialDenseMatrix
Data access mode: Copy
A_Copied: yes
Rows(M): 24
Columns(N): 24
LDA: 24
24679487179.47651 8413461538.447442 -8413461538.442077 5608974359.023168 4206730769.246028 1682692307.664088 -560897435.8636986 -841346153.8257846 841346153.8325877 5608974358.957307 -1682692307.707334 -4206730769.222614 -11217948718.01836 1682692307.684083 -1682692307.675493 -8974358974.321583 841346153.869925 8413461538.456774 -6169871794.850189 -4206730769.223249 4206730769.227529 -8974358974.403166 -8413461538.491111 -841346153.8407943 
8413461538.447442 24679487179.4609 -8413461538.433738 4206730769.246026 5608974359.015368 1682692307.663782 841346153.8677866 -8974358974.307833 8413461538.447825 1682692307.67981 -11217948717.99788 -1682692307.682538 -1682692307.70306 5608974358.942499 -4206730769.214995 -841346153.8236461 -560897435.8746095 841346153.8325588 -4206730769.223249 -6169871794.845218 4206730769.225309 -8413461538.49111 -8974358974.393227 -841346153.8382065 
-8413461538.442077 -8413461538.433738 24679487179.45018 -1682692307.724333 -1682692307.722084 -11217948717.90039 -841346153.8606644 8413461538.448467 -8974358974.318562 -4206730769.220698 1682692307.704605 5608974358.948925 1682692307.711011 -4206730769.216271 5608974358.933941 8413461538.455817 -841346153.8610125 -8974358974.338337 4206730769.227528 4206730769.22531 -6169871794.853776 841346153.853416 841346153.8547263 -560897435.9219592 
5608974359.023168 4206730769.246026 -1682692307.724333 24679487179.63741 8413461538.536666 8413461538.500029 5608974359.017495 -1682692307.693949 4206730769.247373 -560897435.9042101 -841346153.8748562 -841346153.8648193 -8974358974.441957 841346153.8297716 -8413461538.482133 -11217948717.9981 1682692307.715311 1682692307.713993 -8974358974.403166 -8413461538.49111 841346153.8534156 -6169871794.930632 -4206730769.267862 -4206730769.243524 
4206730769.246028 5608974359.015368 -1682692307.722084 8413461538.536666 24679487179.6218 8413461538.495595 1682692307.711039 -11217948717.98231 1682692307.703112 841346153.8276377 -8974358974.437574 -8413461538.482154 -841346153.8727217 -560897435.9057653 -841346153.8597264 -1682692307.689677 5608974359.007371 4206730769.249888 -8413461538.491112 -8974358974.393229 841346153.8547261 -4206730769.267861 -6169871794.925665 -4206730769.239355 
1682692307.664088 1682692307.663782 -11217948717.90039 8413461538.500029 8413461538.495595 24679487179.52258 4206730769.247866 -1682692307.681764 5608974358.958836 841346153.8296382 -8413461538.481659 -8974358974.371132 -8413461538.482381 841346153.8327117 -8974358974.358162 -1682692307.674921 4206730769.248899 5608974358.960222 -841346153.8407949 -841346153.8382064 -560897435.9219592 -4206730769.243524 -4206730769.239357 -6169871794.88997 
-560897435.8636986 841346153.8677866 -841346153.8606644 5608974359.017495 1682692307.711039 4206730769.247866 24679487179.58752 -8413461538.488276 8413461538.490451 5608974359.018483 -4206730769.253062 -1682692307.726635 -6169871794.90569 4206730769.24461 -4206730769.238734 -8974358974.393793 8413461538.493683 841346153.8590866 -11217948718.01836 -1682692307.70306 1682692307.711012 -8974358974.441956 -841346153.8727219 -8413461538.482382 
-841346153.8257846 -8974358974.307833 8413461538.448467 -1682692307.693949 -11217948717.98231 -1682692307.681764 -8413461538.488276 24679487179.49123 -8413461538.428793 -4206730769.235215 5608974359.014954 1682692307.666759 4206730769.24461 -6169871794.86038 4206730769.222836 8413461538.484763 -8974358974.392401 -841346153.8439444 1682692307.684083 5608974358.942499 -4206730769.216271 841346153.8297718 -560897435.9057651 841346153.8327117 
841346153.8325877 8413461538.447825 -8974358974.318562 4206730769.247373 1682692307.703112 5608974358.958836 8413461538.490451 -8413461538.428793 24679487179.46772 1682692307.660364 -1682692307.719394 -11217948717.90153 -4206730769.238734 4206730769.222837 -6169871794.862557 -841346153.8344127 841346153.8491322 -560897435.9196928 -1682692307.675493 -4206730769.214993 5608974358.93394 -8413461538.482132 -841346153.8597264 -8974358974.358162 
5608974358.957307 1682692307.67981 -4206730769.220698 -560897435.9042101 841346153.8276377 841346153.8296382 5608974359.018483 -4206730769.235215 1682692307.660364 24679487179.50766 -8413461538.488279 -8413461538.444551 -8974358974.393793 8413461538.48476 -841346153.8344129 -6169871794.865759 4206730769.244612 4206730769.228766 -8974358974.321581 -841346153.8236468 8413461538.455816 -11217948717.9981 -1682692307.689678 -1682692307.674922 
-1682692307.707334 -11217948717.99788 1682692307.704605 -841346153.8748562 -8974358974.437574 -8413461538.481659 -4206730769.253062 5608974359.014954 -1682692307.719394 -8413461538.488279 24679487179.58982 8413461538.501981 8413461538.493682 -8974358974.392405 841346153.8491323 4206730769.244612 -6169871794.909673 -4206730769.24255 841346153.8699247 -560897435.8746095 -841346153.8610125 1682692307.71531 5608974359.007372 4206730769.248898 
-4206730769.222614 -1682692307.682538 5608974358.948925 -841346153.8648193 -8413461538.482154 -8974358974.371132 -1682692307.726635 1682692307.666759 -11217948717.90153 -8413461538.444551 8413461538.501981 24679487179.50048 841346153.8590864 -841346153.8439444 -560897435.9196926 4206730769.228766 -4206730769.24255 -6169871794.878926 8413461538.456774 841346153.8325586 -8974358974.338337 1682692307.713994 4206730769.249889 5608974358.960222 
-11217948718.01836 -1682692307.70306 1682692307.711011 -8974358974.441957 -841346153.8727217 -8413461538.482381 -6169871794.90569 4206730769.24461 -4206730769.238734 -8974358974.393793 8413461538.493682 841346153.8590864 24679487179.58752 -8413461538.488276 8413461538.490449 5608974359.018482 -4206730769.253061 -1682692307.726635 -560897435.8636982 841346153.8677866 -841346153.8606641 5608974359.017495 1682692307.711039 4206730769.247868 
1682692307.684083 5608974358.942499 -4206730769.216271 841346153.8297716 -560897435.9057653 841346153.8327117 4206730769.24461 -6169871794.86038 4206730769.222837 8413461538.48476 -8974358974.392405 -841346153.8439444 -8413461538.488276 24679487179.49123 -8413461538.428793 -4206730769.235215 5608974359.014952 1682692307.666759 -841346153.8257847 -8974358974.307833 8413461538.448465 -1682692307.693949 -11217948717.98231 -1682692307.681765 
-1682692307.675493 -4206730769.214995 5608974358.933941 -8413461538.482133 -841346153.8597264 -8974358974.358162 -4206730769.238734 4206730769.222836 -6169871794.862557 -841346153.8344129 841346153.8491323 -560897435.9196926 8413461538.490449 -8413461538.428793 24679487179.46773 1682692307.660364 -1682692307.719395 -11217948717.90154 841346153.8325878 8413461538.447827 -8974358974.318567 4206730769.247372 1682692307.703112 5608974358.958838 
-8974358974.321583 -841346153.8236461 8413461538.455817 -11217948717.9981 -1682692307.689677 -1682692307.674921 -8974358974.393793 8413461538.484763 -841346153.8344127 -6169871794.865759 4206730769.244612 4206730769.228766 5608974359.018482 -4206730769.235215 1682692307.660364 24679487179.50766 -8413461538.488279 -8413461538.444551 5608974358.957308 1682692307.67981 -4206730769.220699 -560897435.90421 841346153.8276379 841346153.829638 
841346153.869925 -560897435.8746095 -841346153.8610125 1682692307.715311 5608974359.007371 4206730769.248899 8413461538.493683 -8974358974.392401 841346153.8491322 4206730769.244612 -6169871794.909673 -4206730769.24255 -4206730769.253061 5608974359.014952 -1682692307.719395 -8413461538.488279 24679487179.58982 8413461538.50198 -1682692307.707334 -11217948717.99789 1682692307.704605 -841346153.8748562 -8974358974.437572 -8413461538.481661 
8413461538.456774 841346153.8325588 -8974358974.338337 1682692307.713993 4206730769.249888 5608974358.960222 841346153.8590866 -841346153.8439444 -560897435.9196928 4206730769.228766 -4206730769.24255 -6169871794.878926 -1682692307.726635 1682692307.666759 -11217948717.90154 -8413461538.444551 8413461538.50198 24679487179.50048 -4206730769.222614 -1682692307.682538 5608974358.948925 -841346153.8648193 -8413461538.482155 -8974358974.371132 
-6169871794.850189 -4206730769.223249 4206730769.227528 -8974358974.403166 -8413461538.491112 -841346153.8407949 -11217948718.01836 1682692307.684083 -1682692307.675493 -8974358974.321581 841346153.8699247 8413461538.456774 -560897435.8636982 -841346153.8257847 841346153.8325878 5608974358.957308 -1682692307.707334 -4206730769.222614 24679487179.47652 8413461538.447444 -8413461538.442077 5608974359.023167 4206730769.246028 1682692307.664088 
-4206730769.223249 -6169871794.845218 4206730769.22531 -8413461538.49111 -8974358974.393229 -841346153.8382064 -1682692307.70306 5608974358.942499 -4206730769.214993 -841346153.8236468 -560897435.8746095 841346153.8325586 841346153.8677866 -8974358974.307833 8413461538.447827 1682692307.67981 -11217948717.99789 -1682692307.682538 8413461538.447444 24679487179.46091 -8413461538.433739 4206730769.246027 5608974359.015366 1682692307.663782 
4206730769.227529 4206730769.225309 -6169871794.853776 841346153.8534156 841346153.8547261 -560897435.9219592 1682692307.711012 -4206730769.216271 5608974358.93394 8413461538.455816 -841346153.8610125 -8974358974.338337 -841346153.8606641 8413461538.448465 -8974358974.318567 -4206730769.220699 1682692307.704605 5608974358.948925 -8413461538.442077 -8413461538.433739 24679487179.45018 -1682692307.724332 -1682692307.722083 -11217948717.9004 
-8974358974.403166 -8413461538.49111 841346153.853416 -6169871794.930632 -4206730769.267861 -4206730769.243524 -8974358974.441956 841346153.8297718 -8413461538.482132 -11217948717.9981 1682692307.71531 1682692307.713994 5608974359.017495 -1682692307.693949 4206730769.247372 -560897435.90421 -841346153.8748562 -841346153.8648193 5608974359.023167 4206730769.246027 -1682692307.724332 24679487179.63741 8413461538.536668 8413461538.500029 
-8413461538.491111 -8974358974.393227 841346153.8547263 -4206730769.267862 -6169871794.925665 -4206730769.239357 -841346153.8727219 -560897435.9057651 -841346153.8597264 -1682692307.689678 5608974359.007372 4206730769.249889 1682692307.711039 -11217948717.98231 1682692307.703112 841346153.8276379 -8974358974.437572 -8413461538.482155 4206730769.246028 5608974359.015366 -1682692307.722083 8413461538.536668 24679487179.6218 8413461538.495595 
-841346153.8407943 -841346153.8382065 -560897435.9219592 -4206730769.243524 -4206730769.239355 -6169871794.88997 -8413461538.482382 841346153.8327117 -8974358974.358162 -1682692307.674922 4206730769.248898 5608974358.960222 4206730769.247868 -1682692307.681765 5608974358.958838 841346153.829638 -8413461538.481661 -8974358974.371132 1682692307.664088 1682692307.663782 -11217948717.9004 8413461538.500029 8413461538.495595 24679487179.52256 

Element 3
Epetra::SerialDenseMatrix
Data access mode: Copy
A_Copied: yes
Rows(M): 24
Columns(N): 24
LDA: 24
24679487179.48359 8413461538.463722 -8413461538.447359 5608974358.990787 4206730769.246624 1682692307.709435 -560897435.8692795 -841346153.8565471 841346153.8589993 5608974358.957215 -1682692307.723608 -4206730769.236091 -11217948717.94316 1682692307.699763 -1682692307.695375 -8974358974.352816 841346153.8739909 8413461538.459221 -6169871794.873319 -4206730769.227319 4206730769.222854 -8974358974.393019 -8413461538.476625 -841346153.8716856 
8413461538.463722 24679487179.44308 -8413461538.406131 4206730769.236568 5608974358.99567 1682692307.679829 841346153.8319968 -8974358974.294504 8413461538.437534 1682692307.663536 -11217948717.98528 -1682692307.710154 -1682692307.677326 5608974358.954973 -4206730769.203425 -841346153.8195807 -560897435.8869308 841346153.8394642 -4206730769.22732 -6169871794.843451 4206730769.218409 -8413461538.471598 -8974358974.38356 -841346153.8555267 
-8413461538.447359 -8413461538.406131 24679487179.41031 -1682692307.677677 -1682692307.707314 -11217948717.93292 -841346153.8270156 8413461538.437535 -8974358974.276699 -4206730769.221007 1682692307.67699 5608974358.958279 1682692307.676655 -4206730769.203425 5608974358.938587 8413461538.45168 -841346153.854107 -8974358974.350689 4206730769.222854 4206730769.218408 -6169871794.834548 841346153.8218707 841346153.8380449 -560897435.9123169 
5608974358.990787 4206730769.236568 -1682692307.677677 24679487179.54195 8413461538.502661 8413461538.48821 5608974358.949573 -1682692307.700171 4206730769.223302 -560897435.9429227 -841346153.8553419 -841346153.8597269 -8974358974.337528 841346153.8288163 -8413461538.45118 -11217948717.90634 1682692307.705852 1682692307.700127 -8974358974.393019 -8413461538.471597 841346153.8218703 -6169871794.902496 -4206730769.24679 -4206730769.244929 
4206730769.246624 5608974358.99567 -1682692307.707314 8413461538.502661 24679487179.60199 8413461538.529591 1682692307.684706 -11217948717.98727 1682692307.676773 841346153.8421237 -8974358974.457365 -8413461538.498835 -841346153.8636217 -560897435.8829746 -841346153.8534591 -1682692307.68908 5608974359.036407 4206730769.26465 -8413461538.476624 -8974358974.383558 841346153.8380449 -4206730769.246789 -6169871794.922904 -4206730769.249453 
1682692307.709435 1682692307.679829 -11217948717.93292 8413461538.48821 8413461538.529591 24679487179.57634 4206730769.2272 -1682692307.710657 5608974358.957022 841346153.8357773 -8413461538.498979 -8974358974.445236 -8413461538.453128 841346153.8402563 -8974358974.348171 -1682692307.690881 4206730769.264939 5608974359.022856 -841346153.871686 -841346153.8555269 -560897435.912317 -4206730769.244929 -4206730769.249453 -6169871794.917557 
-560897435.8692795 841346153.8319968 -841346153.8270156 5608974358.949573 1682692307.684706 4206730769.2272 24679487179.39057 -8413461538.421726 8413461538.412798 5608974358.951923 -4206730769.227324 -1682692307.695807 -6169871794.826809 4206730769.215405 -4206730769.207223 -8974358974.31529 8413461538.457893 841346153.8665203 -11217948717.94316 -1682692307.677326 1682692307.676655 -8974358974.337528 -841346153.863622 -8413461538.453125 
-841346153.8565471 -8974358974.294504 8413461538.437535 -1682692307.700171 -11217948717.98727 -1682692307.710657 -8413461538.421726 24679487179.41877 -8413461538.40757 -4206730769.219537 5608974358.985491 1682692307.679613 4206730769.215404 -6169871794.831293 4206730769.219129 8413461538.453998 -8974358974.363203 -841346153.8548789 1682692307.699763 5608974358.954975 -4206730769.203424 841346153.8288164 -560897435.8829746 841346153.8402562 
841346153.8589993 8413461538.437534 -8974358974.276699 4206730769.223302 1682692307.676773 5608974358.957022 8413461538.412798 -8413461538.40757 24679487179.38599 1682692307.680119 -1682692307.707819 -11217948717.94382 -4206730769.207222 4206730769.219127 -6169871794.822391 -841346153.8214422 841346153.8388369 -560897435.8905201 -1682692307.695375 -4206730769.203424 5608974358.938587 -8413461538.451177 -841346153.8534591 -8974358974.348169 
5608974358.957215 1682692307.663536 -4206730769.221007 -560897435.9429227 841346153.8421237 841346153.8357773 5608974358.951923 -4206730769.219537 1682692307.680119 24679487179.4795 -8413461538.471998 -8413461538.46684 -8974358974.31529 8413461538.453996 -841346153.8214424 -6169871794.871276 4206730769.240541 4206730769.232594 -8974358974.352818 -841346153.8195804 8413461538.451677 -11217948717.90634 -1682692307.68908 -1682692307.690882 
-1682692307.723608 -11217948717.98528 1682692307.67699 -841346153.8553419 -8974358974.457365 -8413461538.498979 -4206730769.227324 5608974358.985491 -1682692307.707819 -8413461538.471998 24679487179.58559 8413461538.52959 8413461538.457891 -8974358974.363203 841346153.8388369 4206730769.240541 -6169871794.914704 -4206730769.249453 841346153.8739913 -560897435.8869307 -841346153.854107 1682692307.705851 5608974359.036406 4206730769.264939 
-4206730769.236091 -1682692307.710154 5608974358.958279 -841346153.8597269 -8413461538.498835 -8974358974.445236 -1682692307.695807 1682692307.679613 -11217948717.94382 -8413461538.46684 8413461538.52959 24679487179.55704 841346153.8665209 -841346153.8548785 -560897435.8905201 4206730769.232594 -4206730769.249453 -6169871794.907915 8413461538.459223 841346153.8394643 -8974358974.350687 1682692307.700127 4206730769.264651 5608974359.022856 
-11217948717.94316 -1682692307.677326 1682692307.676655 -8974358974.337528 -841346153.8636217 -8413461538.453128 -6169871794.826809 4206730769.215404 -4206730769.207222 -8974358974.31529 8413461538.457891 841346153.8665209 24679487179.39058 -8413461538.421729 8413461538.412798 5608974358.951924 -4206730769.227325 -1682692307.695808 -560897435.8692796 841346153.8319973 -841346153.8270156 5608974358.949571 1682692307.684706 4206730769.2272 
1682692307.699763 5608974358.954973 -4206730769.203425 841346153.8288163 -560897435.8829746 841346153.8402563 4206730769.215405 -6169871794.831293 4206730769.219127 8413461538.453996 -8974358974.363203 -841346153.8548785 -8413461538.421729 24679487179.41877 -8413461538.40757 -4206730769.219537 5608974358.985493 1682692307.679613 -841346153.8565471 -8974358974.294504 8413461538.437536 -1682692307.700171 -11217948717.98726 -1682692307.710658 
-1682692307.695375 -4206730769.203425 5608974358.938587 -8413461538.45118 -841346153.8534591 -8974358974.348171 -4206730769.207223 4206730769.219129 -6169871794.822391 -841346153.8214424 841346153.8388369 -560897435.8905201 8413461538.412798 -8413461538.40757 24679487179.386 1682692307.680118 -1682692307.707818 -11217948717.94382 841346153.8589993 8413461538.437536 -8974358974.276697 4206730769.223304 1682692307.676774 5608974358.95702 
-8974358974.352816 -841346153.8195807 8413461538.45168 -11217948717.90634 -1682692307.68908 -1682692307.690881 -8974358974.31529 8413461538.453998 -841346153.8214422 -6169871794.871276 4206730769.240541 4206730769.232594 5608974358.951924 -4206730769.219537 1682692307.680118 24679487179.4795 -8413461538.472 -8413461538.466839 5608974358.957214 1682692307.663536 -4206730769.221007 -560897435.9429226 841346153.8421239 841346153.8357775 
841346153.8739909 -560897435.8869308 -841346153.854107 1682692307.705852 5608974359.036407 4206730769.264939 8413461538.457893 -8974358974.363203 841346153.8388369 4206730769.240541 -6169871794.914704 -4206730769.249453 -4206730769.227325 5608974358.985493 -1682692307.707818 -8413461538.472 24679487179.58559 8413461538.529592 -1682692307.723608 -11217948717.98528 1682692307.67699 -841346153.8553419 -8974358974.457367 -8413461538.498978 
8413461538.459221 841346153.8394642 -8974358974.350689 1682692307.700127 4206730769.26465 5608974359.022856 841346153.8665203 -841346153.8548789 -560897435.8905201 4206730769.232594 -4206730769.249453 -6169871794.907915 -1682692307.695808 1682692307.679613 -11217948717.94382 -8413461538.466839 8413461538.529592 24679487179.55704 -4206730769.236091 -1682692307.710154 5608974358.95828 -841346153.8597265 -8413461538.498833 -8974358974.445232 
-6169871794.873319 -4206730769.22732 4206730769.222854 -8974358974.393019 -8413461538.476624 -841346153.871686 -11217948717.94316 1682692307.699763 -1682692307.695375 -8974358974.352818 841346153.8739913 8413461538.459223 -560897435.8692796 -841346153.8565471 841346153.8589993 5608974358.957214 -1682692307.723608 -4206730769.236091 24679487179.48359 8413461538.463722 -8413461538.447358 5608974358.990788 4206730769.246623 1682692307.709436 
-4206730769.227319 -6169871794.843451 4206730769.218408 -8413461538.471597 -8974358974.383558 -841346153.8555269 -1682692307.677326 5608974358.954975 -4206730769.203424 -841346153.8195804 -560897435.8869307 841346153.8394643 841346153.8319973 -8974358974.294504 8413461538.437536 1682692307.663536 -11217948717.98528 -1682692307.710154 8413461538.463722 24679487179.44308 -8413461538.406131 4206730769.236568 5608974358.99567 1682692307.679829 
4206730769.222854 4206730769.218409 -6169871794.834548 841346153.8218703 841346153.8380449 -560897435.912317 1682692307.676655 -4206730769.203424 5608974358.938587 8413461538.451677 -841346153.854107 -8974358974.350687 -841346153.8270156 8413461538.437536 -8974358974.276697 -4206730769.221007 1682692307.67699 5608974358.95828 -8413461538.447358 -8413461538.406131 24679487179.41031 -1682692307.677677 -1682692307.707314 -11217948717.93293 
-8974358974.393019 -8413461538.471598 841346153.8218707 -6169871794.902496 -4206730769.246789 -4206730769.244929 -8974358974.337528 841346153.8288164 -8413461538.451177 -11217948717.90634 1682692307.705851 1682692307.700127 5608974358.949571 -1682692307.700171 4206730769.223304 -560897435.9429226 -841346153.8553419 -841346153.8597265 5608974358.990788 4206730769.236568 -1682692307.677677 24679487179.54194 8413461538.502663 8413461538.488212 
-8413461538.476625 -8974358974.38356 841346153.8380449 -4206730769.24679 -6169871794.922904 -4206730769.249453 -841346153.863622 -560897435.8829746 -841346153.8534591 -1682692307.68908 5608974359.036406 4206730769.264651 1682692307.684706 -11217948717.98726 1682692307.676774 841346153.8421239 -8974358974.457367 -8413461538.498833 4206730769.246623 5608974358.99567 -1682692307.707314 8413461538.502663 24679487179.60199 8413461538.529591 
-841346153.8716856 -841346153.8555267 -560897435.9123169 -4206730769.244929 -4206730769.249453 -6169871794.917557 -8413461538.453125 841346153.8402562 -8974358974.348169 -1682692307.690882 4206730769.264939 5608974359.022856 4206730769.2272 -1682692307.710658 5608974358.95702 841346153.8357775 -8413461538.498978 -8974358974.445232 1682692307.709436 1682692307.679829 -11217948717.93293 8413461538.488212 8413461538.529591 24679487179.57632 

Element 4
Epetra::SerialDenseMatrix
Data access mode: Copy
A_Copied: yes
Rows(M): 24
Columns(N): 24
LDA: 24
24679487179.49255 8413461538.48556 -8413461538.465677 5608974359.009092 4206730769.243377 1682692307.670286 -560897435.8792015 -841346153.8356932 841346153.8348088 5608974358.977512 -1682692307.676231 -4206730769.233777 -11217948717.9729 1682692307.660642 -1682692307.656365 -8974358974.362476 841346153.83035 8413461538.45409 -6169871794.879992 -4206730769.235284 4206730769.226347 -8974358974.384592 -8413461538.47272 -841346153.8297136 
8413461538.48556 24679487179.52176 -8413461538.476115 4206730769.244655 5608974359.020502 1682692307.681314 841346153.855988 -8974358974.335291 8413461538.432206 1682692307.705854 -11217948717.93039 -1682692307.704326 -1682692307.72272 5608974358.948917 -4206730769.21575 -841346153.8606927 -560897435.907414 841346153.8685408 -4206730769.235283 -6169871794.899952 4206730769.23841 -8413461538.473358 -8974358974.418129 -841346153.8242788 
-8413461538.465677 -8413461538.476115 24679487179.47261 -1682692307.706163 -1682692307.700772 -11217948717.85622 -841346153.8530965 8413461538.432206 -8974358974.308933 -4206730769.233139 1682692307.677761 5608974358.969133 1682692307.719445 -4206730769.215751 5608974358.924338 8413461538.453772 -841346153.8225024 -8974358974.379238 4206730769.226348 4206730769.23841 -6169871794.886775 841346153.858511 841346153.8667642 -560897435.9349051 
5608974359.009092 4206730769.244655 -1682692307.706163 24679487179.47441 8413461538.490503 8413461538.416577 5608974358.967598 -1682692307.677724 4206730769.207242 -560897435.8808917 -841346153.8412848 -841346153.8537396 -8974358974.342644 841346153.8316362 -8413461538.427841 -11217948717.97205 1682692307.66333 1682692307.720193 -8974358974.38459 -8413461538.473361 841346153.8585112 -6169871794.87092 -4206730769.237756 -4206730769.21478 
4206730769.243377 5608974359.020502 -1682692307.700772 8413461538.490503 24679487179.49086 8413461538.434319 1682692307.706627 -11217948717.94598 1682692307.691144 841346153.8502523 -8974358974.335541 -8413461538.438076 -841346153.8605394 -560897435.8762536 -841346153.8626548 -1682692307.719744 5608974358.949042 4206730769.226083 -8413461538.472721 -8974358974.418129 841346153.8667641 -4206730769.237755 -6169871794.884499 -4206730769.216806 
1682692307.670286 1682692307.681314 -11217948717.85622 8413461538.416577 8413461538.434319 24679487179.35957 4206730769.207737 -1682692307.673096 5608974358.908941 841346153.8347325 -8413461538.429156 -8974358974.316292 -8413461538.428089 841346153.8194654 -8974358974.258854 -1682692307.656751 4206730769.208236 5608974358.928019 -841346153.8297139 -841346153.8242788 -560897435.9349051 -4206730769.214779 -4206730769.216806 -6169871794.83026 
-560897435.8792015 841346153.855988 -841346153.8530965 5608974358.967598 1682692307.706627 4206730769.207737 24679487179.43602 -8413461538.431259 8413461538.413385 5608974358.990744 -4206730769.214527 -1682692307.707509 -6169871794.851727 4206730769.223125 -4206730769.213184 -8974358974.347895 8413461538.443306 841346153.8613086 -11217948717.9729 -1682692307.72272 1682692307.719447 -8974358974.342644 -841346153.8605392 -8413461538.428089 
-841346153.8356932 -8974358974.335291 8413461538.432206 -1682692307.677724 -11217948717.94598 -1682692307.673096 -8413461538.431259 24679487179.36539 -8413461538.386889 -4206730769.213539 5608974358.957901 1682692307.694699 4206730769.223124 -6169871794.82177 4206730769.193796 8413461538.442809 -8974358974.292923 -841346153.8644319 1682692307.660642 5608974358.948917 -4206730769.21575 841346153.8316362 -560897435.8762536 841346153.8194654 
841346153.8348088 8413461538.432206 -8974358974.308933 4206730769.207242 1682692307.691144 5608974358.908941 8413461538.413385 -8413461538.386889 24679487179.31623 1682692307.668797 -1682692307.669542 -11217948717.87421 -4206730769.213184 4206730769.193797 -6169871794.808591 -841346153.8268441 841346153.8176887 -560897435.8989263 -1682692307.656364 -4206730769.21575 5608974358.924339 -8413461538.427841 -841346153.8626548 -8974358974.258848 
5608974358.977512 1682692307.705854 -4206730769.233139 -560897435.8808917 841346153.8502523 841346153.8347325 5608974358.990744 -4206730769.213539 1682692307.668797 24679487179.45754 -8413461538.424875 -8413461538.46815 -8974358974.347891 8413461538.442812 -841346153.8268445 -6169871794.862488 4206730769.219933 4206730769.227584 -8974358974.362476 -841346153.8606929 8413461538.453772 -11217948717.97205 -1682692307.719744 -1682692307.656752 
-1682692307.676231 -11217948717.93039 1682692307.677761 -841346153.8412848 -8974358974.335541 -8413461538.429156 -4206730769.214527 5608974358.957901 -1682692307.669542 -8413461538.424875 24679487179.3968 8413461538.43432 8413461538.443303 -8974358974.292923 841346153.8176887 4206730769.219932 -6169871794.837473 -4206730769.216806 841346153.8303504 -560897435.9074138 -841346153.8225023 1682692307.663331 5608974358.949042 4206730769.208236 
-4206730769.233777 -1682692307.704326 5608974358.969133 -841346153.8537396 -8413461538.438076 -8974358974.316292 -1682692307.707509 1682692307.694699 -11217948717.87421 -8413461538.46815 8413461538.43432 24679487179.44398 841346153.8613085 -841346153.8644316 -560897435.8989264 4206730769.227582 -4206730769.216807 -6169871794.872464 8413461538.45409 841346153.8685405 -8974358974.379238 1682692307.720194 4206730769.226082 5608974358.928017 
-11217948717.9729 -1682692307.72272 1682692307.719445 -8974358974.342644 -841346153.8605394 -8413461538.428089 -6169871794.851727 4206730769.223124 -4206730769.213184 -8974358974.347891 8413461538.443303 841346153.8613085 24679487179.43602 -8413461538.431258 8413461538.413383 5608974358.990742 -4206730769.214527 -1682692307.707509 -560897435.8792012 841346153.855988 -841346153.8530966 5608974358.967596 1682692307.706627 4206730769.207737 
1682692307.660642 5608974358.948917 -4206730769.215751 841346153.8316362 -560897435.8762536 841346153.8194654 4206730769.223125 -6169871794.82177 4206730769.193797 8413461538.442812 -8974358974.292923 -841346153.8644316 -8413461538.431258 24679487179.36539 -8413461538.386887 -4206730769.213539 5608974358.9579 1682692307.694699 -841346153.835693 -8974358974.335289 8413461538.432206 -1682692307.677724 -11217948717.94597 -1682692307.673096 
-1682692307.656365 -4206730769.21575 5608974358.924338 -8413461538.427841 -841346153.8626548 -8974358974.258854 -4206730769.213184 4206730769.193796 -6169871794.808591 -841346153.8268445 841346153.8176887 -560897435.8989264 8413461538.413383 -8413461538.386887 24679487179.31623 1682692307.668797 -1682692307.669542 -11217948717.87421 841346153.8348092 8413461538.432207 -8974358974.308935 4206730769.207243 1682692307.691145 5608974358.908939 
-8974358974.362476 -841346153.8606927 8413461538.453772 -11217948717.97205 -1682692307.719744 -1682692307.656751 -8974358974.347895 8413461538.442809 -841346153.8268441 -6169871794.862488 4206730769.219932 4206730769.227582 5608974358.990742 -4206730769.213539 1682692307.668797 24679487179.45754 -8413461538.424873 -8413461538.468151 5608974358.977514 1682692307.705854 -4206730769.233138 -560897435.880892 841346153.8502524 841346153.8347325 
841346153.83035 -560897435.907414 -841346153.8225024 1682692307.66333 5608974358.949042 4206730769.208236 8413461538.443306 -8974358974.292923 841346153.8176887 4206730769.219933 -6169871794.837473 -4206730769.216807 -4206730769.214527 5608974358.9579 -1682692307.669542 -8413461538.424873 24679487179.3968 8413461538.43432 -1682692307.676231 -11217948717.93039 1682692307.677761 -841346153.8412849 -8974358974.335541 -8413461538.429153 
8413461538.45409 841346153.8685408 -8974358974.379238 1682692307.720193 4206730769.226083 5608974358.928019 841346153.8613086 -841346153.8644319 -560897435.8989263 4206730769.227584 -4206730769.216806 -6169871794.872464 -1682692307.707509 1682692307.694699 -11217948717.87421 -8413461538.468151 8413461538.43432 24679487179.44398 -4206730769.233776 -1682692307.704326 5608974358.969134 -841346153.8537397 -8413461538.438077 -8974358974.316294 
-6169871794.879992 -4206730769.235283 4206730769.226348 -8974358974.38459 -8413461538.472721 -841346153.8297139 -11217948717.9729 1682692307.660642 -1682692307.656364 -8974358974.362476 841346153.8303504 8413461538.45409 -560897435.8792012 -841346153.835693 841346153.8348092 5608974358.977514 -1682692307.676231 -4206730769.233776 24679487179.49255 8413461538.48556 -8413461538.465677 5608974359.009091 4206730769.243377 1682692307.670286 
-4206730769.235284 -6169871794.899952 4206730769.23841 -8413461538.473361 -8974358974.418129 -841346153.8242788 -1682692307.72272 5608974358.948917 -4206730769.21575 -841346153.8606929 -560897435.9074138 841346153.8685405 841346153.855988 -8974358974.335289 8413461538.432207 1682692307.705854 -11217948717.93039 -1682692307.704326 8413461538.48556 24679487179.52176 -8413461538.476115 4206730769.244655 5608974359.020503 1682692307.681314 
4206730769.226347 4206730769.23841 -6169871794.886775 841346153.8585112 841346153.8667641 -560897435.9349051 1682692307.719447 -4206730769.21575 5608974358.924339 8413461538.453772 -841346153.8225023 -8974358974.379238 -841346153.8530966 8413461538.432206 -8974358974.308935 -4206730769.233138 1682692307.677761 5608974358.969134 -8413461538.465677 -8413461538.476115 24679487179.4726 -1682692307.706164 -1682692307.700772 -11217948717.85622 
-8974358974.384592 -8413461538.473358 841346153.858511 -6169871794.87092 -4206730769.237755 -4206730769.214779 -8974358974.342644 841346153.8316362 -8413461538.427841 -11217948717.97205 1682692307.663331 1682692307.720194 5608974358.967596 -1682692307.677724 4206730769.207243 -560897435.880892 -841346153.8412849 -841346153.8537397 5608974359.009091 4206730769.244655 -1682692307.706164 24679487179.47441 8413461538.490502 8413461538.416576 
-8413461538.47272 -8974358974.418129 841346153.8667642 -4206730769.237756 -6169871794.884499 -4206730769.216806 -841346153.8605392 -560897435.8762536 -841346153.8626548 -1682692307.719744 5608974358.949042 4206730769.226082 1682692307.706627 -11217948717.94597 1682692307.691145 841346153.8502524 -8974358974.335541 -8413461538.438077 4206730769.243377 5608974359.020503 -1682692307.700772 8413461538.490502 24679487179.49085 8413461538.43432 
-841346153.8297136 -841346153.8242788 -560897435.9349051 -4206730769.21478 -4206730769.216806 -6169871794.83026 -8413461538.428089 841346153.8194654 -8974358974.258848 -1682692307.656752 4206730769.208236 5608974358.928017 4206730769.207737 -1682692307.673096 5608974358.908939 841346153.8347325 -8413461538.429153 -8974358974.316294 1682692307.670286 1682692307.681314 -11217948717.85622 8413461538.416576 8413461538.43432 24679487179.35957 

Element 5
Epetra::SerialDenseMatrix
Data access mode: Copy
A_Copied: yes
Rows(M): 24
Columns(N): 24
LDA: 24
24679487179.52787 8413461538.487207 -8413461538.469099 5608974358.980618 4206730769.243243 1682692307.704655 -560897435.8788203 -841346153.8393929 841346153.8496996 5608974359.012719 -1682692307.677885 -4206730769.241932 -11217948717.98738 1682692307.66243 -1682692307.69892 -8974358974.384403 841346153.830765 8413461538.48174 -6169871794.884944 -4206730769.235696 4206730769.235373 -8974358974.385654 -8413461538.470673 -841346153.8615164 
8413461538.487207 24679487179.50542 -8413461538.463127 4206730769.243242 5608974358.969397 1682692307.705401 841346153.8516498 -8974358974.32637 8413461538.453366 1682692307.704201 -11217948717.88131 -1682692307.717307 -1682692307.719657 5608974358.93875 -4206730769.226855 -841346153.8602778 -560897435.9207966 841346153.871783 -4206730769.235696 -6169871794.889776 4206730769.235162 -8413461538.470673 -8974358974.395319 -841346153.8584225 
-8413461538.469099 -8413461538.463127 24679487179.50485 -1682692307.688763 -1682692307.686738 -11217948717.98718 -841346153.8444946 8413461538.44834 -8974358974.339705 -4206730769.236902 1682692307.664779 5608974359.01378 1682692307.68947 -4206730769.216801 5608974358.9636 8413461538.479223 -841346153.8192598 -8974358974.382269 4206730769.235373 4206730769.235162 -6169871794.871305 841346153.835193 841346153.8376472 -560897435.9017532 
5608974358.980618 4206730769.243242 -1682692307.688763 24679487179.54764 8413461538.485765 8413461538.497998 5608974359.013973 -1682692307.678101 4206730769.240765 -560897435.8960904 -841346153.8385996 -841346153.8495616 -8974358974.386915 841346153.8314128 -8413461538.482801 -11217948717.97874 1682692307.661925 1682692307.695349 -8974358974.385653 -8413461538.470671 841346153.8351923 -6169871794.894835 -4206730769.234976 -4206730769.248174 
4206730769.243243 5608974358.969397 -1682692307.686738 8413461538.485765 24679487179.5252 8413461538.497577 1682692307.703698 -11217948717.87932 1682692307.688216 841346153.8522997 -8974358974.342201 -8413461538.467193 -841346153.8594861 -560897435.9247508 -841346153.8644339 -1682692307.719873 5608974358.946668 4206730769.240114 -8413461538.470673 -8974358974.395319 841346153.8376472 -4206730769.234975 -6169871794.89967 -4206730769.24519 
1682692307.704655 1682692307.705401 -11217948717.98718 8413461538.497998 8413461538.497577 24679487179.582 4206730769.244659 -1682692307.696136 5608974359.02142 841346153.8490946 -8413461538.463297 -8974358974.401588 -8413461538.48475 841346153.8277417 -8974358974.397552 -1682692307.701963 4206730769.232325 5608974358.994542 -841346153.8615159 -841346153.8584225 -560897435.9017532 -4206730769.248173 -4206730769.245189 -6169871794.90989 
-560897435.8788203 841346153.8516498 -841346153.8444946 5608974359.013973 1682692307.703698 4206730769.244659 24679487179.48675 -8413461538.42323 8413461538.472854 5608974358.958805 -4206730769.211468 -1682692307.69935 -6169871794.864388 4206730769.21952 -4206730769.235602 -8974358974.34203 8413461538.438971 841346153.8572161 -11217948717.98738 -1682692307.719656 1682692307.689469 -8974358974.386911 -841346153.8594863 -8413461538.484751 
-841346153.8393929 -8974358974.32637 8413461538.44834 -1682692307.678101 -11217948717.87932 -1682692307.696136 -8413461538.42323 24679487179.38219 -8413461538.424186 -4206730769.211757 5608974358.90581 1682692307.693648 4206730769.219521 -6169871794.828166 4206730769.21569 8413461538.439114 -8974358974.268147 -841346153.8482978 1682692307.66243 5608974358.93875 -4206730769.216801 841346153.8314128 -560897435.9247508 841346153.8277416 
841346153.8496996 8413461538.453366 -8974358974.339705 4206730769.240765 1682692307.688216 5608974359.02142 8413461538.472854 -8413461538.424186 24679487179.48217 1682692307.692934 -1682692307.680649 -11217948718.00616 -4206730769.235602 4206730769.21569 -6169871794.859971 -841346153.838925 841346153.8388501 -560897435.863798 -1682692307.698921 -4206730769.226854 5608974358.963601 -8413461538.482801 -841346153.864434 -8974358974.397551 
5608974359.012719 1682692307.704201 -4206730769.236902 -560897435.8960904 841346153.8522997 841346153.8490946 5608974358.958805 -4206730769.211757 1682692307.692934 24679487179.50151 -8413461538.42323 -8413461538.48857 -8974358974.342028 8413461538.439114 -841346153.8389254 -6169871794.871766 4206730769.219521 4206730769.245109 -8974358974.384399 -841346153.8602781 8413461538.479224 -11217948717.97874 -1682692307.719872 -1682692307.701964 
-1682692307.677885 -11217948717.88131 1682692307.664779 -841346153.8385996 -8974358974.342201 -8413461538.463297 -4206730769.211468 5608974358.90581 -1682692307.680649 -8413461538.42323 24679487179.39407 8413461538.447303 8413461538.438971 -8974358974.268147 841346153.8388503 4206730769.219522 -6169871794.834105 -4206730769.220054 841346153.8307649 -560897435.9207968 -841346153.8192595 1682692307.661927 5608974358.946665 4206730769.232325 
-4206730769.241932 -1682692307.717307 5608974359.01378 -841346153.8495616 -8413461538.467193 -8974358974.401588 -1682692307.69935 1682692307.693648 -11217948718.00616 -8413461538.48857 8413461538.447303 24679487179.52877 841346153.8572161 -841346153.8482978 -560897435.863798 4206730769.24511 -4206730769.220053 -6169871794.883272 8413461538.481741 841346153.871783 -8974358974.382269 1682692307.695349 4206730769.240114 5608974358.994542 
-11217948717.98738 -1682692307.719657 1682692307.68947 -8974358974.386915 -841346153.8594861 -8413461538.48475 -6169871794.864388 4206730769.219521 -4206730769.235602 -8974358974.342028 8413461538.438971 841346153.8572161 24679487179.48675 -8413461538.423227 8413461538.472853 5608974358.958806 -4206730769.21147 -1682692307.69935 -560897435.8788207 841346153.85165 -841346153.8444949 5608974359.013974 1682692307.703698 4206730769.244659 
1682692307.66243 5608974358.93875 -4206730769.216801 841346153.8314128 -560897435.9247508 841346153.8277417 4206730769.21952 -6169871794.828166 4206730769.21569 8413461538.439114 -8974358974.268147 -841346153.8482978 -8413461538.423227 24679487179.3822 -8413461538.424186 -4206730769.211758 5608974358.90581 1682692307.693648 -841346153.8393931 -8974358974.326368 8413461538.448339 -1682692307.6781 -11217948717.87933 -1682692307.696136 
-1682692307.69892 -4206730769.226855 5608974358.9636 -8413461538.482801 -841346153.8644339 -8974358974.397552 -4206730769.235602 4206730769.21569 -6169871794.859971 -841346153.8389254 841346153.8388503 -560897435.863798 8413461538.472853 -8413461538.424186 24679487179.48217 1682692307.692934 -1682692307.680649 -11217948718.00616 841346153.8496996 8413461538.453365 -8974358974.339706 4206730769.240765 1682692307.688216 5608974359.021421 
-8974358974.384403 -841346153.8602778 8413461538.479223 -11217948717.97874 -1682692307.719873 -1682692307.701963 -8974358974.34203 8413461538.439114 -841346153.838925 -6169871794.871766 4206730769.219522 4206730769.24511 5608974358.958806 -4206730769.211758 1682692307.692934 24679487179.50151 -8413461538.423227 -8413461538.488569 5608974359.012718 1682692307.704201 -4206730769.236902 -560897435.8960905 841346153.8522995 841346153.8490946 
841346153.830765 -560897435.9207966 -841346153.8192598 1682692307.661925 5608974358.946668 4206730769.232325 8413461538.438971 -8974358974.268147 841346153.8388501 4206730769.219521 -6169871794.834105 -4206730769.220053 -4206730769.21147 5608974358.90581 -1682692307.680649 -8413461538.423227 24679487179.39407 8413461538.447304 -1682692307.677885 -11217948717.88131 1682692307.664779 -841346153.8385993 -8974358974.342201 -8413461538.463297 
8413461538.48174 841346153.871783 -8974358974.382269 1682692307.695349 4206730769.240114 5608974358.994542 841346153.8572161 -841346153.8482978 -560897435.863798 4206730769.245109 -4206730769.220054 -6169871794.883272 -1682692307.69935 1682692307.693648 -11217948718.00616 -8413461538.488569 8413461538.447304 24679487179.52877 -4206730769.241931 -1682692307.717307 5608974359.01378 -841346153.8495617 -8413461538.467193 -8974358974.40159 
-6169871794.884944 -4206730769.235696 4206730769.235373 -8974358974.385653 -8413461538.470673 -841346153.8615159 -11217948717.98738 1682692307.66243 -1682692307.698921 -8974358974.384399 841346153.8307649 8413461538.481741 -560897435.8788207 -841346153.8393931 841346153.8496996 5608974359.012718 -1682692307.677885 -4206730769.241931 24679487179.52786 8413461538.487208 -8413461538.469098 5608974358.980618 4206730769.243243 1682692307.704655 
-4206730769.235696 -6169871794.889776 4206730769.235162 -8413461538.470671 -8974358974.395319 -841346153.8584225 -1682692307.719656 5608974358.93875 -4206730769.226854 -841346153.8602781 -560897435.9207968 841346153.871783 841346153.85165 -8974358974.326368 8413461538.453365 1682692307.704201 -11217948717.88131 -1682692307.717307 8413461538.487208 24679487179.50542 -8413461538.46313 4206730769.243243 5608974358.969397 1682692307.705402 
4206730769.235373 4206730769.235162 -6169871794.871305 841346153.8351923 841346153.8376472 -560897435.9017532 1682692307.689469 -4206730769.216801 5608974358.963601 8413461538.479224 -841346153.8192595 -8974358974.382269 -841346153.8444949 8413461538.448339 -8974358974.339706 -4206730769.236902 1682692307.664779 5608974359.01378 -8413461538.469098 -8413461538.46313 24679487179.50484 -1682692307.688763 -1682692307.686738 -11217948717.98719 
-8974358974.385654 -8413461538.470673 841346153.835193 -6169871794.894835 -4206730769.234975 -4206730769.248173 -8974358974.386911 841346153.8314128 -8413461538.482801 -11217948717.97874 1682692307.661927 1682692307.695349 5608974359.013974 -1682692307.6781 4206730769.240765 -560897435.8960905 -841346153.8385993 -841346153.8495617 5608974358.980618 4206730769.243243 -1682692307.688763 24679487179.54764 8413461538.485767 8413461538.497994 
-8413461538.470673 -8974358974.395319 841346153.8376472 -4206730769.234976 -6169871794.89967 -4206730769.245189 -841346153.8594863 -560897435.9247508 -841346153.864434 -1682692307.719872 5608974358.946665 4206730769.240114 1682692307.703698 -11217948717.87933 1682692307.688216 841346153.8522995 -8974358974.342201 -8413461538.467193 4206730769.243243 5608974358.969397 -1682692307.686738 8413461538.485767 24679487179.5252 8413461538.497578 
-841346153.8615164 -841346153.8584225 -560897435.9017532 -4206730769.248174 -4206730769.24519 -6169871794.90989 -8413461538.484751 841346153.8277416 -8974358974.397551 -1682692307.701964 4206730769.232325 5608974358.994542 4206730769.244659 -1682692307.696136 5608974359.021421 841346153.8490946 -8413461538.463297 -8974358974.40159 1682692307.704655 1682692307.705402 -11217948717.98719 8413461538.497994 8413461538.497578 24679487179.58201 

Element 6
Epetra::SerialDenseMatrix
Data access mode: Copy
A_Copied: yes
Rows(M): 24
Columns(N): 24
LDA: 24
24679487179.36781 8413461538.43126 -8413461538.439713 5608974358.889235 4206730769.218463 1682692307.684385 -560897435.9436116 -841346153.8393496 841346153.8412994 5608974358.900431 -1682692307.685783 -4206730769.22191 -11217948717.79346 1682692307.68094 -1682692307.682329 -8974358974.28981 841346153.8440125 8413461538.442864 -6169871794.840057 -4206730769.214626 4206730769.219855 -8974358974.290539 -8413461538.434919 -841346153.844452 
8413461538.43126 24679487179.50011 -8413461538.488041 4206730769.218463 5608974358.955382 1682692307.695413 841346153.8466649 -8974358974.386726 8413461538.486269 1682692307.686247 -11217948717.9943 -1682692307.702144 -1682692307.691088 5608974359.037781 -4206730769.241185 -841346153.8420025 -560897435.8784432 841346153.851248 -4206730769.214626 -6169871794.874459 4206730769.245967 -8413461538.434917 -8974358974.359343 -841346153.8475304 
-8413461538.439713 -8413461538.488041 24679487179.52545 -1682692307.692704 -1682692307.701787 -11217948718.03421 -841346153.846606 8413461538.48627 -8974358974.399214 -4206730769.220634 1682692307.695055 5608974358.982439 1682692307.693481 -4206730769.241185 5608974359.050448 8413461538.442226 -841346153.8473513 -8974358974.377487 4206730769.219855 4206730769.245967 -6169871794.880702 841346153.8440925 841346153.8510692 -560897435.8667229 
5608974358.889235 4206730769.218463 -1682692307.692704 24679487179.3885 8413461538.442595 8413461538.445737 5608974358.906096 -1682692307.684082 4206730769.220706 -560897435.9529662 -841346153.8455828 -841346153.8475686 -8974358974.301144 841346153.8389109 -8413461538.442259 -11217948717.78878 1682692307.684907 1682692307.694867 -8974358974.290541 -8413461538.434917 841346153.844092 -6169871794.850402 -4206730769.220293 -4206730769.222868 
4206730769.218463 5608974358.955382 -1682692307.701787 8413461538.442595 24679487179.5208 8413461538.497962 1682692307.690214 -11217948717.9943 1682692307.696755 841346153.8415656 -8974358974.407417 -8413461538.494633 -841346153.8482361 -560897435.8784425 -841346153.8524507 -1682692307.689389 5608974359.048128 4206730769.250114 -8413461538.434919 -8974358974.359344 841346153.8510691 -4206730769.220293 -6169871794.884804 -4206730769.247032 
1682692307.684385 1682692307.695413 -11217948718.03421 8413461538.445737 8413461538.497962 24679487179.53552 4206730769.221838 -1682692307.698177 5608974358.976771 841346153.8415425 -8413461538.493499 -8974358974.420622 -8413461538.442825 841346153.8450148 -8974358974.366152 -1682692307.683355 4206730769.247848 5608974359.061153 -841346153.8444514 -841346153.8475304 -560897435.8667231 -4206730769.222868 -4206730769.247032 -6169871794.885738 
-560897435.9436116 841346153.8466649 -841346153.846606 5608974358.906096 1682692307.690214 4206730769.221838 24679487179.3736 -8413461538.428891 8413461538.43935 5608974358.886463 -4206730769.21558 -1682692307.695646 -6169871794.842954 4206730769.215449 -4206730769.219675 -8974358974.284998 8413461538.431466 841346153.8500824 -11217948717.79346 -1682692307.691089 1682692307.693482 -8974358974.301142 -841346153.8482368 -8413461538.442828 
-841346153.8393496 -8974358974.386726 8413461538.48627 -1682692307.684082 -11217948717.9943 -1682692307.698177 -8413461538.428891 24679487179.48396 -8413461538.476702 -4206730769.213312 5608974358.947305 1682692307.697113 4206730769.21545 -6169871794.866381 4206730769.240301 8413461538.430332 -8974358974.343187 -841346153.8526299 1682692307.680941 5608974359.037781 -4206730769.241185 841346153.8389113 -560897435.8784425 841346153.8450148 
841346153.8412994 8413461538.486269 -8974358974.399214 4206730769.220706 1682692307.696755 5608974358.976771 8413461538.43935 -8413461538.476702 24679487179.5093 1682692307.6813 -1682692307.69782 -11217948718.03662 -4206730769.219675 4206730769.2403 -6169871794.872625 -841346153.8383901 841346153.8448358 -560897435.8619018 -1682692307.68233 -4206730769.241185 5608974359.050449 -8413461538.442261 -841346153.8524511 -8974358974.366154 
5608974358.900431 1682692307.686247 -4206730769.220634 -560897435.9529662 841346153.8415656 841346153.8415425 5608974358.886463 -4206730769.213312 1682692307.6813 24679487179.37163 -8413461538.428895 -8413461538.445381 -8974358974.284998 8413461538.430335 -841346153.8383899 -6169871794.841965 4206730769.21545 4206730769.222689 -8974358974.28981 -841346153.8420024 8413461538.442226 -11217948717.78878 -1682692307.68939 -1682692307.683355 
-1682692307.685783 -11217948717.9943 1682692307.695055 -841346153.8455828 -8974358974.407417 -8413461538.493499 -4206730769.21558 5608974358.947305 -1682692307.69782 -8413461538.428895 24679487179.50465 8413461538.497961 8413461538.431466 -8974358974.343187 841346153.8448359 4206730769.215451 -6169871794.876728 -4206730769.247032 841346153.8440123 -560897435.8784432 -841346153.8473513 1682692307.684907 5608974359.048128 4206730769.247848 
-4206730769.22191 -1682692307.702144 5608974358.982439 -841346153.8475686 -8413461538.494633 -8974358974.420622 -1682692307.695646 1682692307.697113 -11217948718.03662 -8413461538.445381 8413461538.497961 24679487179.54203 841346153.8500822 -841346153.8526301 -560897435.8619016 4206730769.222688 -4206730769.247033 -6169871794.888995 8413461538.442865 841346153.851248 -8974358974.377487 1682692307.694869 4206730769.250115 5608974359.061153 
-11217948717.79346 -1682692307.691088 1682692307.693481 -8974358974.301144 -841346153.8482361 -8413461538.442825 -6169871794.842954 4206730769.21545 -4206730769.219675 -8974358974.284998 8413461538.431466 841346153.8500822 24679487179.3736 -8413461538.428892 8413461538.439352 5608974358.886462 -4206730769.21558 -1682692307.695646 -560897435.9436111 841346153.8466649 -841346153.8466061 5608974358.906097 1682692307.690214 4206730769.221838 
1682692307.68094 5608974359.037781 -4206730769.241185 841346153.8389109 -560897435.8784425 841346153.8450148 4206730769.215449 -6169871794.866381 4206730769.2403 8413461538.430335 -8974358974.343187 -841346153.8526301 -8413461538.428892 24679487179.48396 -8413461538.476705 -4206730769.213313 5608974358.947308 1682692307.697113 -841346153.8393495 -8974358974.386724 8413461538.486268 -1682692307.684082 -11217948717.9943 -1682692307.698177 
-1682692307.682329 -4206730769.241185 5608974359.050448 -8413461538.442259 -841346153.8524507 -8974358974.366152 -4206730769.219675 4206730769.240301 -6169871794.872625 -841346153.8383899 841346153.8448359 -560897435.8619016 8413461538.439352 -8413461538.476705 24679487179.50929 1682692307.681299 -1682692307.697819 -11217948718.03662 841346153.8412995 8413461538.486269 -8974358974.399216 4206730769.220705 1682692307.696755 5608974358.976772 
-8974358974.28981 -841346153.8420025 8413461538.442226 -11217948717.78878 -1682692307.689389 -1682692307.683355 -8974358974.284998 8413461538.430332 -841346153.8383901 -6169871794.841965 4206730769.215451 4206730769.222688 5608974358.886462 -4206730769.213313 1682692307.681299 24679487179.37162 -8413461538.428892 -8413461538.445379 5608974358.90043 1682692307.686247 -4206730769.220634 -560897435.9529661 841346153.841566 841346153.8415424 
841346153.8440125 -560897435.8784432 -841346153.8473513 1682692307.684907 5608974359.048128 4206730769.247848 8413461538.431466 -8974358974.343187 841346153.8448358 4206730769.21545 -6169871794.876728 -4206730769.247033 -4206730769.21558 5608974358.947308 -1682692307.697819 -8413461538.428892 24679487179.50464 8413461538.497963 -1682692307.685782 -11217948717.9943 1682692307.695055 -841346153.8455826 -8974358974.407415 -8413461538.493498 
8413461538.442864 841346153.851248 -8974358974.377487 1682692307.694867 4206730769.250114 5608974359.061153 841346153.8500824 -841346153.8526299 -560897435.8619018 4206730769.222689 -4206730769.247032 -6169871794.888995 -1682692307.695646 1682692307.697113 -11217948718.03662 -8413461538.445379 8413461538.497963 24679487179.54203 -4206730769.22191 -1682692307.702144 5608974358.98244 -841346153.8475685 -8413461538.494631 -8974358974.420622 
-6169871794.840057 -4206730769.214626 4206730769.219855 -8974358974.290541 -8413461538.434919 -841346153.8444514 -11217948717.79346 1682692307.680941 -1682692307.68233 -8974358974.28981 841346153.8440123 8413461538.442865 -560897435.9436111 -841346153.8393495 841346153.8412995 5608974358.90043 -1682692307.685782 -4206730769.22191 24679487179.36781 8413461538.431259 -8413461538.439712 5608974358.889234 4206730769.218463 1682692307.684385 
-4206730769.214626 -6169871794.874459 4206730769.245967 -8413461538.434917 -8974358974.359344 -841346153.8475304 -1682692307.691089 5608974359.037781 -4206730769.241185 -841346153.8420024 -560897435.8784432 841346153.851248 841346153.8466649 -8974358974.386724 8413461538.486269 1682692307.686247 -11217948717.9943 -1682692307.702144 8413461538.431259 24679487179.50011 -8413461538.488038 4206730769.218463 5608974358.955383 1682692307.695413 
4206730769.219855 4206730769.245967 -6169871794.880702 841346153.844092 841346153.8510691 -560897435.8667231 1682692307.693482 -4206730769.241185 5608974359.050449 8413461538.442226 -841346153.8473513 -8974358974.377487 -841346153.8466061 8413461538.486268 -8974358974.399216 -4206730769.220634 1682692307.695055 5608974358.98244 -8413461538.439712 -8413461538.488038 24679487179.52544 -1682692307.692704 -1682692307.701786 -11217948718.03421 
-8974358974.290539 -8413461538.434917 841346153.8440925 -6169871794.850402 -4206730769.220293 -4206730769.222868 -8974358974.301142 841346153.8389113 -8413461538.442261 -11217948717.78878 1682692307.684907 1682692307.694869 5608974358.906097 -1682692307.684082 4206730769.220705 -560897435.9529661 -841346153.8455826 -841346153.8475685 5608974358.889234 4206730769.218463 -1682692307.692704 24679487179.38849 8413461538.442595 8413461538.445737 
-8413461538.434919 -8974358974.359343 841346153.8510692 -4206730769.220293 -6169871794.884804 -4206730769.247032 -841346153.8482368 -560897435.8784425 -841346153.8524511 -1682692307.68939 5608974359.048128 4206730769.250115 1682692307.690214 -11217948717.9943 1682692307.696755 841346153.841566 -8974358974.407415 -8413461538.494631 4206730769.218463 5608974358.955383 -1682692307.701786 8413461538.442595 24679487179.5208 8413461538.497962 
-841346153.844452 -841346153.8475304 -560897435.8667229 -4206730769.222868 -4206730769.247032 -6169871794.885738 -8413461538.442828 841346153.8450148 -8974358974.366154 -1682692307.683355 4206730769.247848 5608974359.061153 4206730769.221838 -1682692307.698177 5608974358.976772 841346153.8415424 -8413461538.493498 -8974358974.420622 1682692307.684385 1682692307.695413 -11217948718.03421 8413461538.445737 8413461538.497962 24679487179.53552 

Element 7
Epetra::SerialDenseMatrix
Data access mode: Copy
A_Copied: yes
Rows(M): 24
Columns(N): 24
LDA: 24
24679487179.49904 8413461538.461241 -8413461538.45823 5608974358.969771 4206730769.232496 1682692307.70897 -560897435.872447 -841346153.8458813 841346153.8474581 5608974359.00299 -1682692307.693099 -4206730769.245294 -11217948717.97991 1682692307.68839 -1682692307.69279 -8974358974.380367 841346153.8472583 8413461538.483047 -6169871794.871187 -4206730769.229204 4206730769.229114 -8974358974.367897 -8413461538.461201 -841346153.8722751 
8413461538.461241 24679487179.45414 -8413461538.432096 4206730769.231219 5608974358.950512 1682692307.705787 841346153.8451608 -8974358974.31966 8413461538.447645 1682692307.690263 -11217948717.90313 -1682692307.724088 -1682692307.693696 5608974358.94369 -4206730769.215449 -841346153.8444225 -560897435.9164319 841346153.8553171 -4206730769.229203 -6169871794.859072 4206730769.224898 -8413461538.460565 -8974358974.350054 -841346153.8620148 
-8413461538.45823 -8413461538.432096 24679487179.46595 -1682692307.68381 -1682692307.681357 -11217948717.99736 -841346153.843904 8413461538.447006 -8974358974.307865 -4206730769.235239 1682692307.661778 5608974359.011576 1682692307.689935 -4206730769.214172 5608974358.952785 8413461538.47802 -841346153.837616 -8974358974.388233 4206730769.229115 4206730769.224898 -6169871794.849984 841346153.8241144 841346153.8315568 -560897435.8868538 
5608974358.969771 4206730769.231219 -1682692307.68381 24679487179.54009 8413461538.466192 8413461538.505674 5608974359.002271 -1682692307.690122 4206730769.235807 -560897435.9149336 -841346153.8457289 -841346153.8514831 -8974358974.378929 841346153.8415184 -8413461538.478304 -11217948717.95867 1682692307.689164 1682692307.700839 -8974358974.367893 -8413461538.460565 841346153.8241143 -6169871794.891712 -4206730769.231678 -4206730769.252835 
4206730769.232496 5608974358.950512 -1682692307.681357 8413461538.466192 24679487179.50796 8413461538.503625 1682692307.692953 -11217948717.90313 1682692307.664755 841346153.846447 -8974358974.373484 -8413461538.482979 -841346153.8500185 -560897435.916432 -841346153.8433537 -1682692307.695189 5608974358.970604 4206730769.250712 -8413461538.461202 -8974358974.350052 841346153.8315572 -4206730769.231678 -6169871794.885984 -4206730769.242961 
1682692307.70897 1682692307.705787 -11217948717.99736 8413461538.505674 8413461538.503625 24679487179.60475 4206730769.244726 -1682692307.721399 5608974359.012297 841346153.8493675 -8413461538.482484 -8974358974.445238 -8413461538.482765 841346153.8497231 -8974358974.389671 -1682692307.700861 4206730769.249722 5608974359.02147 -841346153.8722751 -841346153.8620148 -560897435.8868539 -4206730769.252836 -4206730769.242962 -6169871794.919388 
-560897435.872447 841346153.8451608 -841346153.843904 5608974359.002271 1682692307.692953 4206730769.244726 24679487179.48514 -8413461538.449188 8413461538.455397 5608974358.963537 -4206730769.226686 -1682692307.706964 -6169871794.864234 4206730769.22601 -4206730769.227697 -8974358974.355427 8413461538.455463 841346153.8712723 -11217948717.97991 -1682692307.693695 1682692307.689934 -8974358974.378929 -841346153.8500189 -8413461538.482762 
-841346153.8458813 -8974358974.31966 8413461538.447006 -1682692307.690122 -11217948717.90313 -1682692307.721399 -8413461538.449188 24679487179.436 -8413461538.427151 -4206730769.225695 5608974358.941446 1682692307.704293 4206730769.226011 -6169871794.850006 4206730769.222425 8413461538.454969 -8974358974.331917 -841346153.8607285 1682692307.688391 5608974358.943689 -4206730769.214171 841346153.8415189 -560897435.9164321 841346153.8497229 
841346153.8474581 8413461538.447645 -8974358974.307865 4206730769.235807 1682692307.664755 5608974359.012297 8413461538.455397 -8413461538.427151 24679487179.46058 1682692307.684682 -1682692307.680584 -11217948718.00077 -4206730769.227698 4206730769.222426 -6169871794.847302 -841346153.8245503 841346153.8317097 -560897435.8800539 -1682692307.69279 -4206730769.215449 5608974358.952785 -8413461538.478305 -841346153.8433542 -8974358974.389675 
5608974359.00299 1682692307.690263 -4206730769.235239 -560897435.9149336 841346153.846447 841346153.8493675 5608974358.963537 -4206730769.225695 1682692307.684682 24679487179.52906 -8413461538.455574 -8413461538.502838 -8974358974.355425 8413461538.454968 -841346153.8245504 -6169871794.886196 4206730769.229204 4206730769.251419 -8974358974.380369 -841346153.8444226 8413461538.47802 -11217948717.95867 -1682692307.695189 -1682692307.700861 
-1682692307.693099 -11217948717.90313 1682692307.661778 -841346153.8457289 -8974358974.373484 -8413461538.482484 -4206730769.226686 5608974358.941446 -1682692307.680584 -8413461538.455574 24679487179.48983 8413461538.497241 8413461538.455463 -8974358974.331917 841346153.83171 4206730769.229204 -6169871794.876917 -4206730769.239769 841346153.8472581 -560897435.9164321 -841346153.8376161 1682692307.689164 5608974358.970603 4206730769.249722 
-4206730769.245294 -1682692307.724088 5608974359.011576 -841346153.8514831 -8413461538.482979 -8974358974.445238 -1682692307.706964 1682692307.704293 -11217948718.00077 -8413461538.502838 8413461538.497241 24679487179.59651 841346153.8712723 -841346153.8607285 -560897435.880054 4206730769.251418 -4206730769.239769 -6169871794.915267 8413461538.483047 841346153.855317 -8974358974.388235 1682692307.700839 4206730769.250712 5608974359.02147 
-11217948717.97991 -1682692307.693696 1682692307.689935 -8974358974.378929 -841346153.8500185 -8413461538.482765 -6169871794.864234 4206730769.226011 -4206730769.227698 -8974358974.355425 8413461538.455463 841346153.8712723 24679487179.48514 -8413461538.449188 8413461538.455397 5608974358.963538 -4206730769.226686 -1682692307.706963 -560897435.8724469 841346153.8451608 -841346153.8439038 5608974359.00227 1682692307.692953 4206730769.244728 
1682692307.68839 5608974358.94369 -4206730769.214172 841346153.8415184 -560897435.916432 841346153.8497231 4206730769.22601 -6169871794.850006 4206730769.222426 8413461538.454968 -8974358974.331917 -841346153.8607285 -8413461538.449188 24679487179.436 -8413461538.427149 -4206730769.225696 5608974358.941446 1682692307.704294 -841346153.8458815 -8974358974.319656 8413461538.447006 -1682692307.690122 -11217948717.90313 -1682692307.721399 
-1682692307.69279 -4206730769.215449 5608974358.952785 -8413461538.478304 -841346153.8433537 -8974358974.389671 -4206730769.227697 4206730769.222425 -6169871794.847302 -841346153.8245504 841346153.83171 -560897435.880054 8413461538.455397 -8413461538.427149 24679487179.46058 1682692307.684682 -1682692307.680583 -11217948718.00076 841346153.8474581 8413461538.447645 -8974358974.307865 4206730769.235806 1682692307.664756 5608974359.012296 
-8974358974.380367 -841346153.8444225 8413461538.47802 -11217948717.95867 -1682692307.695189 -1682692307.700861 -8974358974.355427 8413461538.454969 -841346153.8245503 -6169871794.886196 4206730769.229204 4206730769.251418 5608974358.963538 -4206730769.225696 1682692307.684682 24679487179.52906 -8413461538.455574 -8413461538.502837 5608974359.002991 1682692307.690263 -4206730769.235238 -560897435.9149337 841346153.8464471 841346153.8493674 
841346153.8472583 -560897435.9164319 -841346153.837616 1682692307.689164 5608974358.970604 4206730769.249722 8413461538.455463 -8974358974.331917 841346153.8317097 4206730769.229204 -6169871794.876917 -4206730769.239769 -4206730769.226686 5608974358.941446 -1682692307.680583 -8413461538.455574 24679487179.48983 8413461538.497242 -1682692307.693099 -11217948717.90313 1682692307.661779 -841346153.845729 -8974358974.37348 -8413461538.482485 
8413461538.483047 841346153.8553171 -8974358974.388233 1682692307.700839 4206730769.250712 5608974359.02147 841346153.8712723 -841346153.8607285 -560897435.8800539 4206730769.251419 -4206730769.239769 -6169871794.915267 -1682692307.706963 1682692307.704294 -11217948718.00076 -8413461538.502837 8413461538.497242 24679487179.59651 -4206730769.245294 -1682692307.724088 5608974359.011577 -841346153.8514829 -8413461538.482979 -8974358974.445234 
-6169871794.871187 -4206730769.229203 4206730769.229115 -8974358974.367893 -8413461538.461202 -841346153.8722751 -11217948717.97991 1682692307.688391 -1682692307.69279 -8974358974.380369 841346153.8472581 8413461538.483047 -560897435.8724469 -841346153.8458815 841346153.8474581 5608974359.002991 -1682692307.693099 -4206730769.245294 24679487179.49904 8413461538.461243 -8413461538.458231 5608974358.969772 4206730769.232497 1682692307.708969 
-4206730769.229204 -6169871794.859072 4206730769.224898 -8413461538.460565 -8974358974.350052 -841346153.8620148 -1682692307.693695 5608974358.943689 -4206730769.215449 -841346153.8444226 -560897435.9164321 841346153.855317 841346153.8451608 -8974358974.319656 8413461538.447645 1682692307.690263 -11217948717.90313 -1682692307.724088 8413461538.461243 24679487179.45414 -8413461538.432095 4206730769.231219 5608974358.950513 1682692307.705787 
4206730769.229114 4206730769.224898 -6169871794.849984 841346153.8241143 841346153.8315572 -560897435.8868539 1682692307.689934 -4206730769.214171 5608974358.952785 8413461538.47802 -841346153.8376161 -8974358974.388235 -841346153.8439038 8413461538.447006 -8974358974.307865 -4206730769.235238 1682692307.661779 5608974359.011577 -8413461538.458231 -8413461538.432095 24679487179.46595 -1682692307.68381 -1682692307.681357 -11217948717.99736 
-8974358974.367897 -8413461538.460565 841346153.8241144 -6169871794.891712 -4206730769.231678 -4206730769.252836 -8974358974.378929 841346153.8415189 -8413461538.478305 -11217948717.95867 1682692307.689164 1682692307.700839 5608974359.00227 -1682692307.690122 4206730769.235806 -560897435.9149337 -841346153.845729 -841346153.8514829 5608974358.969772 4206730769.231219 -1682692307.68381 24679487179.54009 8413461538.46619 8413461538.505672 
-8413461538.461201 -8974358974.350054 841346153.8315568 -4206730769.231678 -6169871794.885984 -4206730769.242962 -841346153.8500189 -560897435.9164321 -841346153.8433542 -1682692307.695189 5608974358.970603 4206730769.250712 1682692307.692953 -11217948717.90313 1682692307.664756 841346153.8464471 -8974358974.37348 -8413461538.482979 4206730769.232497 5608974358.950513 -1682692307.681357 8413461538.46619 24679487179.50796 8413461538.503627 
-841346153.8722751 -841346153.8620148 -560897435.8868538 -4206730769.252835 -4206730769.242961 -6169871794.919388 -8413461538.482762 841346153.8497229 -8974358974.389675 -1682692307.700861 4206730769.249722 5608974359.02147 4206730769.244728 -1682692307.721399 5608974359.012296 841346153.8493674 -8413461538.482485 -8974358974.445234 1682692307.708969 1682692307.705787 -11217948717.99736 8413461538.505672 8413461538.503627 24679487179.60475 

