Element 0
Epetra::SerialDenseMatrix
Data access mode: Copy
A_Copied: yes
Rows(M): 24
Columns(N): 24
LDA: 24
36.11111111112155 0 0 18.05555555556078 0 0 9.027777777780384 0 0 18.05555555556077 0 0 18.05555555556077 0 0 9.027777777780384 0 0 4.513888888890192 0 0 9.027777777780384 0 0 
0 36.11111111112155 0 0 18.05555555556078 0 0 9.027777777780384 0 0 18.05555555556077 0 0 18.05555555556077 0 0 9.027777777780384 0 0 4.513888888890192 0 0 9.027777777780384 0 
0 0 36.11111111112155 0 0 18.05555555556078 0 0 9.027777777780384 0 0 18.05555555556077 0 0 18.05555555556077 0 0 9.027777777780384 0 0 4.513888888890192 0 0 9.027777777780384 
18.05555555556078 0 0 36.11111111112155 0 0 18.05555555556077 0 0 9.027777777780384 0 0 9.027777777780384 0 0 18.05555555556077 0 0 9.027777777780384 0 0 4.513888888890192 0 0 
0 18.05555555556078 0 0 36.11111111112155 0 0 18.05555555556077 0 0 9.027777777780384 0 0 9.027777777780384 0 0 18.05555555556077 0 0 9.027777777780384 0 0 4.513888888890192 0 
0 0 18.05555555556078 0 0 36.11111111112155 0 0 18.05555555556077 0 0 9.027777777780384 0 0 9.027777777780384 0 0 18.05555555556077 0 0 9.027777777780384 0 0 4.513888888890192 
9.027777777780384 0 0 18.05555555556077 0 0 36.11111111112155 0 0 18.05555555556077 0 0 4.513888888890192 0 0 9.027777777780384 0 0 18.05555555556077 0 0 9.027777777780384 0 0 
0 9.027777777780384 0 0 18.05555555556077 0 0 36.11111111112155 0 0 18.05555555556077 0 0 4.513888888890192 0 0 9.027777777780384 0 0 18.05555555556077 0 0 9.027777777780384 0 
0 0 9.027777777780384 0 0 18.05555555556077 0 0 36.11111111112155 0 0 18.05555555556077 0 0 4.513888888890192 0 0 9.027777777780384 0 0 18.05555555556077 0 0 9.027777777780384 
18.05555555556077 0 0 9.027777777780384 0 0 18.05555555556077 0 0 36.11111111112154 0 0 9.027777777780384 0 0 4.513888888890192 0 0 9.027777777780384 0 0 18.05555555556077 0 0 
0 18.05555555556077 0 0 9.027777777780384 0 0 18.05555555556077 0 0 36.11111111112154 0 0 9.027777777780384 0 0 4.513888888890192 0 0 9.027777777780384 0 0 18.05555555556077 0 
0 0 18.05555555556077 0 0 9.027777777780384 0 0 18.05555555556077 0 0 36.11111111112154 0 0 9.027777777780384 0 0 4.513888888890192 0 0 9.027777777780384 0 0 18.05555555556077 
18.05555555556077 0 0 9.027777777780384 0 0 4.513888888890192 0 0 9.027777777780384 0 0 36.11111111112154 0 0 18.05555555556077 0 0 9.027777777780384 0 0 18.05555555556077 0 0 
0 18.05555555556077 0 0 9.027777777780384 0 0 4.513888888890192 0 0 9.027777777780384 0 0 36.11111111112154 0 0 18.05555555556077 0 0 9.027777777780384 0 0 18.05555555556077 0 
0 0 18.05555555556077 0 0 9.027777777780384 0 0 4.513888888890192 0 0 9.027777777780384 0 0 36.11111111112154 0 0 18.05555555556077 0 0 9.027777777780384 0 0 18.05555555556077 
9.027777777780384 0 0 18.05555555556077 0 0 9.027777777780384 0 0 4.513888888890192 0 0 18.05555555556077 0 0 36.11111111112154 0 0 18.05555555556077 0 0 9.027777777780384 0 0 
0 9.027777777780384 0 0 18.05555555556077 0 0 9.027777777780384 0 0 4.513888888890192 0 0 18.05555555556077 0 0 36.11111111112154 0 0 18.05555555556077 0 0 9.027777777780384 0 
0 0 9.027777777780384 0 0 18.05555555556077 0 0 9.027777777780384 0 0 4.513888888890192 0 0 18.05555555556077 0 0 36.11111111112154 0 0 18.05555555556077 0 0 9.027777777780384 
4.513888888890192 0 0 9.027777777780384 0 0 18.05555555556077 0 0 9.027777777780384 0 0 9.027777777780384 0 0 18.05555555556077 0 0 36.11111111112154 0 0 18.05555555556077 0 0 
0 4.513888888890192 0 0 9.027777777780384 0 0 18.05555555556077 0 0 9.027777777780384 0 0 9.027777777780384 0 0 18.05555555556077 0 0 36.11111111112154 0 0 18.05555555556077 0 
0 0 4.513888888890192 0 0 9.027777777780384 0 0 18.05555555556077 0 0 9.027777777780384 0 0 9.027777777780384 0 0 18.05555555556077 0 0 36.11111111112154 0 0 18.05555555556077 
9.027777777780384 0 0 4.513888888890192 0 0 9.027777777780384 0 0 18.05555555556077 0 0 18.05555555556077 0 0 9.027777777780384 0 0 18.05555555556077 0 0 36.11111111112154 0 0 
0 9.027777777780384 0 0 4.513888888890192 0 0 9.027777777780384 0 0 18.05555555556077 0 0 18.05555555556077 0 0 9.027777777780384 0 0 18.05555555556077 0 0 36.11111111112154 0 
0 0 9.027777777780384 0 0 4.513888888890192 0 0 9.027777777780384 0 0 18.05555555556077 0 0 18.05555555556077 0 0 9.027777777780384 0 0 18.05555555556077 0 0 36.11111111112154 

Element 1
Epetra::SerialDenseMatrix
Data access mode: Copy
A_Copied: yes
Rows(M): 24
Columns(N): 24
LDA: 24
36.11111111119264 0 0 18.05555555559631 0 0 9.027777777798159 0 0 18.05555555559632 0 0 18.05555555559631 0 0 9.027777777798159 0 0 4.51388888889908 0 0 9.027777777798159 0 0 
0 36.11111111119264 0 0 18.05555555559631 0 0 9.027777777798159 0 0 18.05555555559632 0 0 18.05555555559631 0 0 9.027777777798159 0 0 4.51388888889908 0 0 9.027777777798159 0 
0 0 36.11111111119264 0 0 18.05555555559631 0 0 9.027777777798159 0 0 18.05555555559632 0 0 18.05555555559631 0 0 9.027777777798159 0 0 4.51388888889908 0 0 9.027777777798159 
18.05555555559631 0 0 36.11111111119265 0 0 18.05555555559632 0 0 9.027777777798159 0 0 9.027777777798159 0 0 18.05555555559632 0 0 9.027777777798159 0 0 4.51388888889908 0 0 
0 18.05555555559631 0 0 36.11111111119265 0 0 18.05555555559632 0 0 9.027777777798159 0 0 9.027777777798159 0 0 18.05555555559632 0 0 9.027777777798159 0 0 4.51388888889908 0 
0 0 18.05555555559631 0 0 36.11111111119265 0 0 18.05555555559632 0 0 9.027777777798159 0 0 9.027777777798159 0 0 18.05555555559632 0 0 9.027777777798159 0 0 4.51388888889908 
9.027777777798159 0 0 18.05555555559632 0 0 36.11111111119263 0 0 18.05555555559632 0 0 4.51388888889908 0 0 9.027777777798159 0 0 18.05555555559632 0 0 9.027777777798159 0 0 
0 9.027777777798159 0 0 18.05555555559632 0 0 36.11111111119263 0 0 18.05555555559632 0 0 4.51388888889908 0 0 9.027777777798159 0 0 18.05555555559632 0 0 9.027777777798159 0 
0 0 9.027777777798159 0 0 18.05555555559632 0 0 36.11111111119263 0 0 18.05555555559632 0 0 4.51388888889908 0 0 9.027777777798159 0 0 18.05555555559632 0 0 9.027777777798159 
18.05555555559632 0 0 9.027777777798159 0 0 18.05555555559632 0 0 36.11111111119263 0 0 9.027777777798159 0 0 4.51388888889908 0 0 9.027777777798159 0 0 18.05555555559632 0 0 
0 18.05555555559632 0 0 9.027777777798159 0 0 18.05555555559632 0 0 36.11111111119263 0 0 9.027777777798159 0 0 4.51388888889908 0 0 9.027777777798159 0 0 18.05555555559632 0 
0 0 18.05555555559632 0 0 9.027777777798159 0 0 18.05555555559632 0 0 36.11111111119263 0 0 9.027777777798159 0 0 4.51388888889908 0 0 9.027777777798159 0 0 18.05555555559632 
18.05555555559631 0 0 9.027777777798159 0 0 4.51388888889908 0 0 9.027777777798159 0 0 36.11111111119263 0 0 18.05555555559632 0 0 9.02777777779816 0 0 18.05555555559632 0 0 
0 18.05555555559631 0 0 9.027777777798159 0 0 4.51388888889908 0 0 9.027777777798159 0 0 36.11111111119263 0 0 18.05555555559632 0 0 9.02777777779816 0 0 18.05555555559632 0 
0 0 18.05555555559631 0 0 9.027777777798159 0 0 4.51388888889908 0 0 9.027777777798159 0 0 36.11111111119263 0 0 18.05555555559632 0 0 9.02777777779816 0 0 18.05555555559632 
9.027777777798159 0 0 18.05555555559632 0 0 9.027777777798159 0 0 4.51388888889908 0 0 18.05555555559632 0 0 36.11111111119264 0 0 18.05555555559632 0 0 9.027777777798159 0 0 
0 9.027777777798159 0 0 18.05555555559632 0 0 9.027777777798159 0 0 4.51388888889908 0 0 18.05555555559632 0 0 36.11111111119264 0 0 18.05555555559632 0 0 9.027777777798159 0 
0 0 9.027777777798159 0 0 18.05555555559632 0 0 9.027777777798159 0 0 4.51388888889908 0 0 18.05555555559632 0 0 36.11111111119264 0 0 18.05555555559632 0 0 9.027777777798159 
4.51388888889908 0 0 9.027777777798159 0 0 18.05555555559632 0 0 9.027777777798159 0 0 9.02777777779816 0 0 18.05555555559632 0 0 36.11111111119264 0 0 18.05555555559632 0 0 
0 4.51388888889908 0 0 9.027777777798159 0 0 18.05555555559632 0 0 9.027777777798159 0 0 9.02777777779816 0 0 18.05555555559632 0 0 36.11111111119264 0 0 18.05555555559632 0 
0 0 4.51388888889908 0 0 9.027777777798159 0 0 18.05555555559632 0 0 9.027777777798159 0 0 9.02777777779816 0 0 18.05555555559632 0 0 36.11111111119264 0 0 18.05555555559632 
9.027777777798159 0 0 4.51388888889908 0 0 9.027777777798159 0 0 18.05555555559632 0 0 18.05555555559632 0 0 9.027777777798159 0 0 18.05555555559632 0 0 36.11111111119265 0 0 
0 9.027777777798159 0 0 4.51388888889908 0 0 9.027777777798159 0 0 18.05555555559632 0 0 18.05555555559632 0 0 9.027777777798159 0 0 18.05555555559632 0 0 36.11111111119265 0 
0 0 9.027777777798159 0 0 4.51388888889908 0 0 9.027777777798159 0 0 18.05555555559632 0 0 18.05555555559632 0 0 9.027777777798159 0 0 18.05555555559632 0 0 36.11111111119265 

